{
    "version": "0.3.0-development-1",
    "status": "update_required",
    "message": "This version has known vulnerabilities, updating required. Please compile from source or use last stable version.",
    "valid_until": "2021-03-01T00:00:00Z"
}