<?xml version="1.0" encoding="UTF-8" standalone="no"?>
<!-- Created with Inkscape (http://www.inkscape.org/) -->

<svg
   xmlns:dc="http://purl.org/dc/elements/1.1/"
   xmlns:cc="http://creativecommons.org/ns#"
   xmlns:rdf="http://www.w3.org/1999/02/22-rdf-syntax-ns#"
   xmlns:svg="http://www.w3.org/2000/svg"
   xmlns="http://www.w3.org/2000/svg"
   xmlns:sodipodi="http://sodipodi.sourceforge.net/DTD/sodipodi-0.dtd"
   xmlns:inkscape="http://www.inkscape.org/namespaces/inkscape"
   width="256mm"
   height="256mm"
   viewBox="0 0 256 256"
   version="1.1"
   id="svg8"
   inkscape:version="0.92.3 (2405546, 2018-03-11)"
   sodipodi:docname="Logo_small.svg"
   inkscape:export-filename="/media/ralph/Home/Projects/DFStoryteller/Logo design/16x16.png"
   inkscape:export-xdpi="1.5875"
   inkscape:export-ydpi="1.5875">
  <defs
     id="defs2" />
  <sodipodi:namedview
     id="base"
     pagecolor="#ffffff"
     bordercolor="#666666"
     borderopacity="1.0"
     inkscape:pageopacity="0.0"
     inkscape:pageshadow="2"
     inkscape:zoom="0.49497475"
     inkscape:cx="218.77827"
     inkscape:cy="599.97464"
     inkscape:document-units="mm"
     inkscape:current-layer="layer2"
     showgrid="false"
     inkscape:window-width="1920"
     inkscape:window-height="1024"
     inkscape:window-x="1920"
     inkscape:window-y="0"
     inkscape:window-maximized="1"
     showguides="false" />
  <metadata
     id="metadata5">
    <rdf:RDF>
      <cc:Work
         rdf:about="">
        <dc:format>image/svg+xml</dc:format>
        <dc:type
           rdf:resource="http://purl.org/dc/dcmitype/StillImage" />
        <dc:title></dc:title>
      </cc:Work>
    </rdf:RDF>
  </metadata>
  <g
     inkscape:groupmode="layer"
     id="layer2"
     inkscape:label="Layer 2">
    <g
       id="g1955"
       transform="matrix(1.2575269,0,0,1.2575269,-26.373789,-51.546878)">
      <path
         sodipodi:nodetypes="cccccccccsccccccccc"
         inkscape:connector-curvature="0"
         id="path1474-7"
         d="m 62.073336,104.65863 -5.71288,-3.107 c -0.41107,-0.19161 -0.916564,-0.0884 -1.209466,0.24517 l -33.239731,39.26798 c 0,0 0.421881,-0.3633 0.784501,-0.3607 v -1e-5 c 0.329855,0.002 0.731072,0.10786 1.163754,0.3483 l 87.384436,60.39985 0.69273,-1.4659 c 1.92067,-2.51051 5.94947,-4.37052 10.95734,-4.37252 6.57498,-0.003 9.3048,2.75137 10.9582,4.2429 l 0.9424,1.24728 87.26779,-60.0516 c 0.87517,-0.48634 1.93254,-0.008 1.93254,-0.008 L 190.77068,101.7971 c -0.2929,-0.33359 -0.7984,-0.43678 -1.20946,-0.24517 l -5.71289,3.107 -60.89885,44.04018 z"
         style="fill:#f09d51;fill-opacity:1;stroke:none;stroke-width:0.26458332px;stroke-linecap:butt;stroke-linejoin:miter;stroke-opacity:1" />
      <path
         sodipodi:nodetypes="ccccc"
         inkscape:connector-curvature="0"
         id="path1421-3-2-0"
         d="m 181.9925,104.51551 26.69852,35.5403 9.84539,1.2199 -29.77206,-35.96289 z"
         style="fill:#d0cfc3;fill-opacity:1;stroke:none;stroke-width:0.2;stroke-linecap:butt;stroke-linejoin:miter;stroke-miterlimit:4;stroke-dasharray:none;stroke-opacity:1" />
      <path
         sodipodi:nodetypes="ccccc"
         inkscape:connector-curvature="0"
         id="path1421-3-2"
         d="m 63.929173,104.51551 -26.698519,35.5403 -9.845393,1.2199 29.77206,-35.96289 z"
         style="fill:#d0cfc3;fill-opacity:1;stroke:none;stroke-width:0.2;stroke-linecap:butt;stroke-linejoin:miter;stroke-miterlimit:4;stroke-dasharray:none;stroke-opacity:1" />
      <path
         sodipodi:nodetypes="czsaccaszcc"
         inkscape:connector-curvature="0"
         id="path1440-3-5"
         d="m 122.96084,194.26074 c 0.23886,-4.05866 1.05392,-8.3609 3.98056,-12.32312 2.92664,-3.96221 9.37274,-7.20086 14.84784,-9.09238 5.48541,-1.89508 23.71511,-8.27709 34.9628,-13.79612 11.12001,-5.45641 31.93899,-18.99331 31.93899,-18.99331 l -26.69853,-35.5403 c 0,0 -14.31968,8.84752 -21.96824,12.41376 -7.73637,3.60716 -20.27512,7.77835 -24.04809,9.01696 -3.76588,1.23627 -8.19963,3.353 -10.21263,5.94266 -2.013,2.58965 -2.63841,5.40152 -2.8027,8.05421 z"
         style="fill:#e0dfd5;fill-opacity:1;stroke:none;stroke-width:0.26458332px;stroke-linecap:butt;stroke-linejoin:miter;stroke-opacity:1" />
      <path
         sodipodi:nodetypes="czsaccaszcc"
         inkscape:connector-curvature="0"
         id="path1440-3"
         d="m 122.96084,194.26074 c -0.23886,-4.05867 -1.05392,-8.3609 -3.98056,-12.32312 -2.92664,-3.96221 -9.37274,-7.20086 -14.84784,-9.09238 -5.485409,-1.89509 -23.715119,-8.27709 -34.9628,-13.79613 -11.120017,-5.4564 -31.938986,-18.9933 -31.938986,-18.9933 l 26.698519,-35.5403 c 0,0 14.319689,8.84752 21.968248,12.41376 7.73637,3.60716 20.275119,7.77835 24.048089,9.01696 3.76588,1.23627 8.19963,3.353 10.21263,5.94265 2.013,2.58966 2.63841,5.40153 2.8027,8.05422 z"
         style="fill:#e0dfd5;fill-opacity:1;stroke:none;stroke-width:0.26458332px;stroke-linecap:butt;stroke-linejoin:miter;stroke-opacity:1" />
      <path
         sodipodi:nodetypes="cccccccccccsccccc"
         style="fill:#b65f10;fill-opacity:1;stroke:#000000;stroke-width:1.13953825;stroke-linecap:butt;stroke-linejoin:miter;stroke-opacity:1;stroke-miterlimit:4;stroke-dasharray:none"
         d="m 22.695772,140.70407 c -0.989561,-0.007 -1.338904,0.9164 0.01447,1.91255 l 87.658958,61.60052 -0.36978,1.94038 c 3.31111,2.64579 9.49133,4.28969 12.96155,4.133 3.47022,0.15669 9.36696,-1.20373 12.67807,-3.84952 l -0.22804,-2.08212 87.8007,-61.74226 c 1.80449,-1.32819 0.58144,-2.52603 -1.14929,-1.56425 l -87.26779,60.05161 -0.9424,-1.24728 c -1.6534,-1.49154 -4.28873,-4.36387 -10.86371,-4.36083 -5.00786,0.002 -9.13115,1.97993 -11.05182,4.49044 l -0.69274,1.46591 -87.384425,-60.39986 c -0.432682,-0.24044 -0.833899,-0.34611 -1.163753,-0.3483 z"
         id="path1419"
         inkscape:connector-curvature="0" />
      <path
         sodipodi:nodetypes="csczsaccc"
         inkscape:connector-curvature="0"
         id="path1421"
         d="m 111.31776,199.53932 c 1.4198,-2.05434 3.11639,-3.19513 5.07812,-4.07586 2.01328,-0.90388 4.80295,-1.24022 6.56496,-1.20272 -0.23886,-4.05867 -1.05392,-8.3609 -3.98056,-12.32312 -2.92664,-3.96221 -9.37274,-7.20086 -14.84784,-9.09238 -5.485412,-1.89509 -23.715122,-8.27709 -34.962798,-13.79613 -11.120019,-5.4564 -31.938987,-18.9933 -31.938987,-18.9933 l -9.845393,1.2199 z"
         style="fill:#d0cfc3;fill-opacity:1;stroke:#000000;stroke-width:0.79521162;stroke-linecap:butt;stroke-linejoin:miter;stroke-miterlimit:4;stroke-dasharray:none;stroke-opacity:1" />
      <path
         sodipodi:nodetypes="cc"
         inkscape:connector-curvature="0"
         id="path1423"
         d="m 37.230655,140.05581 26.698519,-35.5403"
         style="fill:none;stroke:#000000;stroke-width:0.79521162;stroke-linecap:butt;stroke-linejoin:miter;stroke-opacity:1;stroke-miterlimit:4;stroke-dasharray:none" />
      <path
         sodipodi:nodetypes="czsacc"
         inkscape:connector-curvature="0"
         id="path1421-3"
         d="m 122.96084,139.9431 c -0.16429,-2.65269 -0.7897,-5.46456 -2.8027,-8.05422 -2.013,-2.58965 -6.44675,-4.70638 -10.21263,-5.94265 -3.77297,-1.23861 -16.311713,-5.4098 -24.048085,-9.01696 -7.648561,-3.56624 -21.968251,-12.41376 -21.968251,-12.41376 l -6.771853,0.79731"
         style="fill:none;stroke:#000000;stroke-width:0.79521162;stroke-linecap:butt;stroke-linejoin:miter;stroke-miterlimit:4;stroke-dasharray:none;stroke-opacity:1" />
      <path
         sodipodi:nodetypes="cc"
         inkscape:connector-curvature="0"
         id="path1440"
         d="M 122.96084,194.26074 V 139.9431"
         style="fill:none;stroke:#000000;stroke-width:0.79521162;stroke-linecap:butt;stroke-linejoin:miter;stroke-miterlimit:4;stroke-dasharray:none;stroke-opacity:1" />
      <path
         sodipodi:nodetypes="cc"
         inkscape:connector-curvature="0"
         id="path1423-6"
         d="M 27.385262,141.27571 57.157321,105.31282"
         style="fill:none;stroke:#000000;stroke-width:0.79521162;stroke-linecap:butt;stroke-linejoin:miter;stroke-opacity:1;stroke-miterlimit:4;stroke-dasharray:none" />
      <path
         sodipodi:nodetypes="ccccc"
         inkscape:connector-curvature="0"
         id="path1457"
         d="m 65.200892,108.21131 -5.480654,7.18155 11.811754,6.70909 4.346727,-7.74852 z"
         style="fill:#f06543;fill-opacity:1;stroke:#000000;stroke-width:0.58289012;stroke-linecap:butt;stroke-linejoin:miter;stroke-opacity:1;stroke-miterlimit:4;stroke-dasharray:none" />
      <path
         sodipodi:nodetypes="cc"
         inkscape:connector-curvature="0"
         id="path1423-6-7"
         d="M 21.904439,141.10056 55.151001,101.7968"
         style="fill:none;stroke:#000000;stroke-width:1.13953825;stroke-linecap:butt;stroke-linejoin:miter;stroke-opacity:1;stroke-miterlimit:4;stroke-dasharray:none" />
      <path
         sodipodi:nodetypes="ccc"
         inkscape:connector-curvature="0"
         id="path1474"
         d="m 55.151001,101.7968 c 0.292903,-0.33359 0.798396,-0.43678 1.20946,-0.24517 l 5.712886,3.107"
         style="fill:none;stroke:#000000;stroke-width:1.13953825;stroke-linecap:butt;stroke-linejoin:miter;stroke-opacity:1;stroke-miterlimit:4;stroke-dasharray:none" />
      <path
         sodipodi:nodetypes="cscccccccccc"
         inkscape:connector-curvature="0"
         id="path1457-7-1"
         d="m 204.24218,138.77895 c -12.38929,6.03747 -24.44041,15.5012 -36.84561,21.20943 -13.39122,6.16194 -34.36938,9.21904 -41.98201,19.30801 l -0.0902,-21.37772 c 4.07865,-4.9956 10.17635,-8.81606 12.18582,-14.97366 1.46908,0.49271 3.11906,0.44272 4.94449,-0.13364 4.91813,-3.86147 5.34729,-8.72048 7.34991,-13.22984 4.69136,1.62268 4.26555,-0.25587 14.96709,5.47902 3.02129,-1.5645 5.57073,-3.60252 7.08264,-6.68173 5.42802,0.29734 7.4557,3.25005 16.57071,0.66816 2.07326,-2.91072 3.43536,-3.77455 4.64568,-4.76655 z"
         style="fill:#37a825;fill-opacity:1;stroke:none;stroke-width:0.26458332px;stroke-linecap:butt;stroke-linejoin:miter;stroke-opacity:1" />
      <path
         style="fill:#9cd0f0;fill-opacity:1;stroke:none;stroke-width:0.26458332px;stroke-linecap:butt;stroke-linejoin:miter;stroke-opacity:1"
         d="m 188.42501,129.04697 c -9.11502,2.58189 -11.1427,-0.37082 -16.57071,-0.66816 -1.51191,3.07921 -4.06135,5.11724 -7.08263,6.68174 -10.70154,-5.7349 -10.27573,-3.85635 -14.9671,-5.47903 -2.00261,4.50937 -2.43178,9.36838 -7.34991,13.22985 -1.82543,0.57636 -3.47541,0.62635 -4.94449,0.13364 -2.00947,6.1576 -8.10717,9.97806 -12.20738,14.98004 l -0.14952,-19.07242 c 1.79445,-9.46096 11.71087,-10.58477 25.81026,-15.70813 9.42027,-3.42308 17.61757,-7.59594 29.61466,-15.01231 l 12.44655,16.1933 c -1.16437,0.94693 -2.52648,1.81076 -4.59973,4.72148 z"
         id="path1629-7"
         inkscape:connector-curvature="0"
         sodipodi:nodetypes="ccccccccsccc" />
      <path
         sodipodi:nodetypes="csczsaccc"
         inkscape:connector-curvature="0"
         id="path1421-6"
         d="m 134.60392,199.53932 c -1.4198,-2.05434 -3.11639,-3.19513 -5.07812,-4.07586 -2.01328,-0.90388 -4.80295,-1.24022 -6.56496,-1.20272 0.23886,-4.05867 1.05392,-8.3609 3.98056,-12.32312 2.92664,-3.96221 9.37274,-7.20086 14.84784,-9.09238 5.48541,-1.89509 23.71512,-8.27709 34.9628,-13.79613 11.12002,-5.4564 31.93898,-18.9933 31.93898,-18.9933 l 9.8454,1.2199 z"
         style="fill:#d0cfc3;fill-opacity:1;stroke:#000000;stroke-width:0.79521162;stroke-linecap:butt;stroke-linejoin:miter;stroke-miterlimit:4;stroke-dasharray:none;stroke-opacity:1" />
      <path
         sodipodi:nodetypes="cc"
         inkscape:connector-curvature="0"
         id="path1423-2"
         d="m 208.69103,140.05581 -26.69852,-35.5403"
         style="fill:none;stroke:#000000;stroke-width:0.79521162;stroke-linecap:butt;stroke-linejoin:miter;stroke-opacity:1;stroke-miterlimit:4;stroke-dasharray:none" />
      <path
         sodipodi:nodetypes="czsacc"
         inkscape:connector-curvature="0"
         id="path1421-3-9"
         d="m 122.96084,139.9431 c 0.16429,-2.65269 0.7897,-5.46456 2.8027,-8.05422 2.013,-2.58965 6.44675,-4.70638 10.21263,-5.94265 3.77297,-1.23861 16.31171,-5.4098 24.04808,-9.01696 7.64857,-3.56624 21.96826,-12.41376 21.96826,-12.41376 l 6.77185,0.79731"
         style="fill:none;stroke:#000000;stroke-width:0.79521162;stroke-linecap:butt;stroke-linejoin:miter;stroke-miterlimit:4;stroke-dasharray:none;stroke-opacity:1" />
      <path
         sodipodi:nodetypes="cc"
         inkscape:connector-curvature="0"
         id="path1423-6-2"
         d="M 218.53642,141.27571 188.76436,105.31282"
         style="fill:none;stroke:#000000;stroke-width:0.79521162;stroke-linecap:butt;stroke-linejoin:miter;stroke-opacity:1;stroke-miterlimit:4;stroke-dasharray:none" />
      <path
         sodipodi:nodetypes="ccsccsc"
         inkscape:connector-curvature="0"
         id="path1457-7"
         d="m 180.62056,107.97745 23.62158,30.80149 c -12.3893,6.03747 -24.44042,15.5012 -36.84562,21.20943 -13.39122,6.16194 -34.36938,9.21904 -41.98201,19.30801 l -0.21887,-40.59849 c 1.79445,-9.46096 11.71087,-10.58477 25.81026,-15.70813 9.42027,-3.42308 17.61758,-7.59594 29.61466,-15.01231 z"
         style="fill:none;stroke:none;stroke-width:0.26458332px;stroke-linecap:butt;stroke-linejoin:miter;stroke-opacity:1" />
      <path
         style="fill:#959c94;fill-opacity:1;stroke:none;stroke-width:0.26458332px;stroke-linecap:butt;stroke-linejoin:miter;stroke-opacity:1"
         d="m 125.3494,157.9121 c 4.05359,-4.98903 10.15129,-8.80949 12.16076,-14.96709 1.46908,0.49271 3.11906,0.44271 4.94449,-0.13364 4.91813,-3.86148 5.3473,-8.72048 7.34991,-13.22984 4.69137,1.62268 4.26556,-0.25587 14.96711,5.47902 3.02129,-1.5645 5.57073,-3.60252 7.08264,-6.68173 5.42801,0.29734 7.45569,3.25005 16.57071,0.66816 2.07325,-2.91072 3.43536,-3.77455 4.6104,-4.74403 0,0 0.42338,5.3004 -0.61605,6.62332 -1.03944,1.32292 -12.89296,0.9265 -14.05391,2.9904 0,0 -2.83482,6.80357 -3.96875,6.80357 -1.13393,0 -8.22098,-0.47247 -8.22098,-0.47247 0,0 -4.32023,3.68518 -7.58621,2.92639 -4.54297,-1.05549 -8.45741,2.96229 -9.02771,3.97921 -1.48226,2.64305 -9.38538,3.60895 -9.38538,3.60895 l -6.04368,5.89302 z"
         id="path1629-3"
         inkscape:connector-curvature="0"
         sodipodi:nodetypes="ccccccccssscssccc" />
      <path
         sodipodi:nodetypes="cc"
         inkscape:connector-curvature="0"
         id="path1423-6-7-0"
         d="M 224.01724,141.10056 190.77068,101.7968"
         style="fill:none;stroke:#000000;stroke-width:1.13953825;stroke-linecap:butt;stroke-linejoin:miter;stroke-opacity:1;stroke-miterlimit:4;stroke-dasharray:none" />
      <path
         sodipodi:nodetypes="ccc"
         inkscape:connector-curvature="0"
         id="path1474-9"
         d="m 190.77068,101.7968 c -0.2929,-0.33359 -0.7984,-0.43678 -1.20946,-0.24517 l -5.71289,3.107"
         style="fill:none;stroke:#000000;stroke-width:1.13953825;stroke-linecap:butt;stroke-linejoin:miter;stroke-opacity:1;stroke-miterlimit:4;stroke-dasharray:none" />
      <path
         style="opacity:1;fill:#121105;fill-opacity:1;stroke:#000000;stroke-width:1.74946556;stroke-linecap:butt;stroke-linejoin:miter;stroke-miterlimit:4;stroke-dasharray:none;stroke-dashoffset:0;stroke-opacity:1"
         id="path1555"
         d="m 76.95522,116.43225 c 0.14595,0.087 0.28647,0.18257 0.431,0.27208 0.27805,0.17292 0.54645,0.36009 0.82369,0.5344 0.44103,0.27283 0.90695,0.50175 1.37654,0.72047 0.5314,0.24271 1.07379,0.45981 1.6098,0.69192 0.50098,0.22168 0.99441,0.45878 1.49756,0.67572 0.52743,0.22371 1.06229,0.42797 1.60117,0.62216 0.46828,0.16106 0.93334,0.33092 1.40434,0.48398 0.34157,0.0992 0.67287,0.22381 1.00174,0.35814 0.36184,0.14054 0.72461,0.2789 1.09087,0.40756 0.48287,0.15425 0.9553,0.33702 1.42753,0.52057 0.52412,0.19075 1.02877,0.42917 1.53743,0.6568 0.37477,0.17511 0.75597,0.33803 1.12579,0.52357 0.1376,0.0695 0.0724,0.0352 0.19593,0.10233 0,0 -0.19245,0.12557 -0.19245,0.12557 v 0 c -0.12164,-0.0674 -0.0574,-0.0328 -0.19293,-0.1034 -0.36675,-0.18799 -0.74582,-0.35198 -1.11883,-0.5269 -0.50765,-0.22896 -1.01254,-0.46602 -1.53652,-0.65605 -0.47291,-0.18312 -0.94628,-0.36475 -1.42996,-0.51806 -0.36725,-0.12856 -0.73148,-0.26564 -1.09409,-0.40674 -0.32796,-0.13357 -0.65862,-0.25712 -0.99823,-0.35858 -0.46979,-0.15453 -0.93393,-0.32501 -1.40119,-0.48692 -0.53912,-0.1948 -1.07426,-0.39954 -1.60224,-0.62303 -0.50328,-0.21658 -0.99655,-0.45396 -1.49739,-0.67588 -0.53603,-0.23181 -1.07766,-0.45054 -1.60898,-0.69318 -0.47139,-0.21915 -0.94054,-0.44618 -1.38375,-0.71899 -0.27853,-0.17345 -0.54791,-0.36044 -0.82789,-0.53147 -0.14534,-0.0884 -0.28597,-0.18438 -0.43424,-0.26757 0,0 0.1953,-0.1285 0.1953,-0.1285 z"
         inkscape:connector-curvature="0" />
      <path
         style="opacity:1;fill:#121105;fill-opacity:1;stroke:#000000;stroke-width:1.74946556;stroke-linecap:butt;stroke-linejoin:miter;stroke-miterlimit:4;stroke-dasharray:none;stroke-dashoffset:0;stroke-opacity:1"
         id="path1559"
         d="m 95.00484,124.0821 c 0.23,0.0401 0.45962,0.0786 0.69228,0.10054 0.2762,0.0463 0.55586,0.0601 0.83388,0.0893 0.30136,0.0237 0.59893,0.0748 0.89682,0.12405 0.32787,0.0548 0.64835,0.14164 0.96819,0.23041 0.24768,0.0583 0.48086,0.15909 0.72127,0.23907 0.19426,0.0616 0.37205,0.16329 0.55923,0.24269 0.20398,0.10005 0.42068,0.16845 0.62684,0.2634 0.24438,0.11025 0.48797,0.22233 0.73471,0.32734 0.29488,0.11378 0.57254,0.26484 0.85908,0.3967 0.31682,0.13646 0.63513,0.26881 0.95406,0.40023 0.31833,0.14006 0.63245,0.28842 0.95276,0.42391 0.31049,0.13137 0.61556,0.27411 0.92864,0.39921 0.26684,0.11443 0.54339,0.20307 0.81664,0.30042 0.18767,0.0596 0.36928,0.1357 0.55015,0.21303 0.17226,0.0632 0.3387,0.13979 0.50768,0.21081 0.18951,0.081 0.38004,0.15986 0.57043,0.239 0.20171,0.0925 0.4064,0.17812 0.61112,0.26374 0.23973,0.10383 0.47364,0.22043 0.7077,0.3363 0.32853,0.15976 0.66024,0.31265 0.99239,0.46474 0.39025,0.17826 0.78333,0.34911 1.18052,0.51131 0.32029,0.13024 0.63331,0.27656 0.95456,0.40434 0.26226,0.10072 0.51163,0.23103 0.7617,0.35819 0.26282,0.13316 0.51243,0.29107 0.76325,0.44532 0.24006,0.13545 0.46637,0.29146 0.691,0.45056 0.21651,0.14984 0.42202,0.31447 0.62238,0.48516 0.19491,0.16906 0.38009,0.34893 0.56438,0.52939 0.1308,0.13062 0.2495,0.27246 0.37387,0.40912 0.11699,0.1203 0.21896,0.25063 0.31236,0.38967 0.11535,0.15064 0.21349,0.3126 0.31826,0.47044 0.11981,0.15756 0.21715,0.3301 0.32202,0.49752 0.11672,0.17558 0.24724,0.34133 0.37229,0.5109 0.13789,0.17747 0.26947,0.35949 0.40014,0.5423 0.13309,0.18535 0.27362,0.36532 0.40138,0.55443 0.15798,0.23341 0.33242,0.45483 0.50257,0.67943 0.18325,0.24218 0.3837,0.46908 0.5947,0.68716 0.20585,0.22188 0.43353,0.41994 0.67103,0.60672 0.13617,0.11935 0.27816,0.232 0.42516,0.33758 0.0925,0.0746 0.18333,0.14975 0.28219,0.21613 0,0 -0.27868,0.17798 -0.27868,0.17798 v 0 c -0.0978,-0.068 -0.18909,-0.14319 -0.28195,-0.21748 -0.14541,-0.10771 -0.28712,-0.22039 -0.42222,-0.34093 -0.23753,-0.18872 -0.46449,-0.38925 -0.67182,-0.61128 -0.21228,-0.21867 -0.41343,-0.4468 -0.59725,-0.69017 -0.17104,-0.22473 -0.34554,-0.44689 -0.50521,-0.6799 -0.12828,-0.18842 -0.26842,-0.36836 -0.4012,-0.55362 -0.13049,-0.18273 -0.26271,-0.36406 -0.40012,-0.54166 -0.12609,-0.16987 -0.25687,-0.33651 -0.37397,-0.51284 -0.10487,-0.16713 -0.20245,-0.33917 -0.32208,-0.49653 -0.10455,-0.15793 -0.20297,-0.31958 -0.3184,-0.4701 -0.0927,-0.13771 -0.19513,-0.26562 -0.31068,-0.38514 -0.12334,-0.13656 -0.24056,-0.27869 -0.37074,-0.40882 -0.18307,-0.18048 -0.3672,-0.36019 -0.5621,-0.528 -0.20036,-0.16929 -0.40502,-0.33342 -0.62074,-0.48284 -0.22402,-0.15877 -0.45073,-0.31289 -0.68952,-0.44903 -0.24998,-0.15417 -0.49907,-0.31145 -0.76194,-0.44298 -0.24938,-0.12641 -0.4982,-0.25556 -0.75944,-0.35619 -0.32027,-0.12863 -0.63211,-0.27627 -0.95171,-0.40659 -0.39711,-0.16329 -0.79046,-0.33454 -1.18129,-0.51234 -0.33323,-0.15214 -0.66645,-0.30414 -0.99642,-0.46323 -0.23403,-0.11533 -0.46809,-0.23105 -0.70811,-0.33355 -0.20488,-0.0853 -0.40917,-0.17191 -0.61134,-0.26349 -0.19076,-0.0788 -0.38138,-0.158 -0.57121,-0.2388 -0.16868,-0.072 -0.33654,-0.14536 -0.50809,-0.21058 -0.18029,-0.0761 -0.36056,-0.15275 -0.54705,-0.21278 -0.27318,-0.0975 -0.54873,-0.18898 -0.81587,-0.30246 -0.31256,-0.12604 -0.61693,-0.27027 -0.92777,-0.40046 -0.32085,-0.13456 -0.6336,-0.28632 -0.95348,-0.42315 -0.31906,-0.13196 -0.6371,-0.26597 -0.95468,-0.40146 -0.28583,-0.13326 -0.56498,-0.281 -0.85957,-0.39512 -0.24733,-0.10489 -0.49125,-0.21754 -0.73644,-0.32726 -0.20665,-0.0937 -0.42341,-0.16227 -0.62756,-0.26198 -0.18575,-0.0805 -0.3637,-0.18024 -0.55745,-0.2408 -0.23851,-0.0824 -0.47143,-0.18011 -0.71772,-0.23935 -0.31861,-0.0896 -0.63874,-0.17457 -0.96589,-0.2277 -0.2976,-0.049 -0.59523,-0.0976 -0.89613,-0.12209 -0.27848,-0.0275 -0.55796,-0.0445 -0.83469,-0.0885 -0.23399,-0.023 -0.46487,-0.0639 -0.69716,-0.0989 0,0 0.27006,-0.19041 0.27006,-0.19041 z"
         inkscape:connector-curvature="0" />
      <path
         style="opacity:1;fill:#121105;fill-opacity:1;stroke:#000000;stroke-width:1.74946556;stroke-linecap:butt;stroke-linejoin:miter;stroke-miterlimit:4;stroke-dasharray:none;stroke-dashoffset:0;stroke-opacity:1"
         id="path1561"
         d="m 75.62389,119.50181 c 0.28844,0.1744 0.60745,0.28999 0.92272,0.40541 0.43144,0.15034 0.86903,0.28164 1.3051,0.4176 0.42805,0.12156 0.8401,0.28739 1.2558,0.44401 0.4394,0.16877 0.87088,0.35661 1.30343,0.54198 0.38603,0.16373 0.77568,0.31877 1.16238,0.48079 0.28607,0.12017 0.57506,0.23304 0.8672,0.33747 0.24739,0.10662 0.50199,0.19313 0.7572,0.27851 0.21352,0.0822 0.43097,0.15442 0.63968,0.24858 0.19168,0.0737 0.37746,0.16161 0.56728,0.23953 0.20589,0.0874 0.41174,0.17474 0.61802,0.26127 0.19364,0.079 0.37446,0.1832 0.5596,0.27953 0.20589,0.11301 0.40465,0.23831 0.60666,0.35796 0.18391,0.11176 0.35839,0.23794 0.53551,0.35996 0.15656,0.11516 0.31258,0.23106 0.47078,0.344 0.17939,0.14514 0.37307,0.26695 0.57224,0.38269 0.22769,0.13434 0.46397,0.25049 0.70449,0.35959 0.2319,0.10749 0.46415,0.21478 0.70656,0.29656 0,0 -0.2708,0.18333 -0.2708,0.18333 v 0 c -0.24177,-0.0851 -0.47434,-0.19282 -0.70701,-0.29994 -0.24143,-0.10952 -0.47763,-0.22811 -0.70657,-0.36217 -0.19998,-0.11645 -0.39444,-0.23961 -0.57562,-0.38412 -0.15805,-0.11267 -0.31328,-0.22919 -0.46971,-0.34406 -0.17646,-0.12179 -0.35118,-0.24647 -0.5343,-0.3582 -0.20059,-0.12087 -0.39985,-0.2441 -0.6054,-0.35646 -0.18461,-0.0957 -0.36589,-0.19774 -0.55845,-0.27719 -0.20583,-0.0877 -0.41227,-0.17349 -0.6182,-0.26087 -0.18958,-0.0792 -0.37658,-0.16466 -0.56772,-0.24032 -0.20819,-0.0922 -0.42382,-0.16588 -0.63649,-0.24689 -0.2553,-0.0854 -0.5091,-0.17422 -0.75709,-0.27942 -0.29195,-0.10484 -0.58007,-0.21976 -0.86583,-0.3405 -0.38571,-0.16281 -0.7744,-0.3186 -1.15948,-0.48298 -0.43227,-0.1854 -0.86404,-0.37194 -1.30328,-0.54042 -0.41493,-0.15735 -0.82803,-0.31888 -1.25486,-0.44238 -0.43649,-0.13658 -0.87471,-0.26783 -1.30672,-0.41835 -0.31919,-0.11655 -0.641,-0.2343 -0.93534,-0.40636 0,0 0.27822,-0.17814 0.27822,-0.17814 z"
         inkscape:connector-curvature="0" />
      <path
         style="opacity:1;fill:#121105;fill-opacity:1;stroke:#000000;stroke-width:1.74946556;stroke-linecap:butt;stroke-linejoin:miter;stroke-miterlimit:4;stroke-dasharray:none;stroke-dashoffset:0;stroke-opacity:1"
         id="path1563"
         d="m 91.27178,126.22981 c 0.36966,0.08 0.74556,0.12199 1.11893,0.18004 0.5845,0.0764 1.16751,0.16307 1.74431,0.28506 0.6108,0.13135 1.21485,0.29325 1.80884,0.48671 0.45149,0.15421 0.88622,0.35454 1.3091,0.57448 0.36021,0.18342 0.70443,0.39575 1.0572,0.59268 0.30931,0.18498 0.61857,0.37005 0.92666,0.55705 0.36912,0.21596 0.74261,0.42298 1.12814,0.60822 0.4665,0.22722 0.94908,0.4163 1.43367,0.60043 0.56003,0.20445 1.1317,0.37513 1.69994,0.55503 0.51875,0.16586 1.02848,0.35594 1.53213,0.56268 0.38336,0.16322 0.74886,0.36349 1.1066,0.57611 0.35372,0.20593 0.70643,0.41354 1.06355,0.61363 0.21202,0.11021 0.41843,0.23693 0.64395,0.31804 0,0 -0.27196,0.18294 -0.27196,0.18294 v 0 c -0.22301,-0.0886 -0.43001,-0.21303 -0.64143,-0.32557 -0.35654,-0.20132 -0.70958,-0.40861 -1.0634,-0.61459 -0.35692,-0.21072 -0.72081,-0.41055 -1.10257,-0.57326 -0.50137,-0.20777 -1.00939,-0.39783 -1.52645,-0.56329 -0.56909,-0.18048 -1.14227,-0.34965 -1.70303,-0.55507 -0.48588,-0.18402 -0.96905,-0.37467 -1.43701,-0.60146 -0.38673,-0.18597 -0.76222,-0.39251 -1.13273,-0.60891 -0.30823,-0.18598 -0.61669,-0.37161 -0.92563,-0.55642 -0.35172,-0.19765 -0.69579,-0.40913 -1.05525,-0.59275 -0.42098,-0.2187 -0.85344,-0.41818 -1.30242,-0.57267 -0.59277,-0.19317 -1.19534,-0.35559 -1.80532,-0.48499 -0.57802,-0.12025 -1.1619,-0.20594 -1.74744,-0.28077 -0.37697,-0.0569 -0.75604,-0.0999 -1.12988,-0.17607 0,0 0.2715,-0.18728 0.2715,-0.18728 z"
         inkscape:connector-curvature="0" />
      <path
         style="opacity:1;fill:#000000;fill-opacity:1;stroke:#000000;stroke-width:1.74946556;stroke-linecap:butt;stroke-linejoin:miter;stroke-miterlimit:4;stroke-dasharray:none;stroke-dashoffset:0;stroke-opacity:1"
         id="path1565"
         d="m 110.90245,134.72639 c 0.39664,0.21074 0.82434,0.3602 1.24676,0.51038 0.84655,0.30582 1.6924,0.61349 2.52234,0.96226 0.62455,0.26578 1.22518,0.58665 1.77633,0.98342 0.20017,0.15878 0.34426,0.36124 0.45092,0.59049 0.10072,0.22551 0.20311,0.45015 0.3212,0.66717 0.17772,0.29543 0.38047,0.57389 0.59659,0.84209 0.21278,0.26635 0.46574,0.49522 0.71523,0.726 0.18823,0.16135 0.38539,0.31184 0.57853,0.46722 0.14843,0.11407 0.28512,0.23989 0.40913,0.37984 0.13201,0.1532 0.26927,0.30166 0.40903,0.44778 0.12234,0.12911 0.2486,0.25438 0.38463,0.36901 0.0161,0.0155 0.0322,0.031 0.0484,0.0466 0,0 -0.28088,0.17287 -0.28088,0.17287 v 0 c -0.0156,-0.0151 -0.0313,-0.0301 -0.0469,-0.0452 -0.13508,-0.11711 -0.26224,-0.24271 -0.38498,-0.37269 -0.1398,-0.14659 -0.27686,-0.29571 -0.4097,-0.44866 -0.12396,-0.1376 -0.25937,-0.26226 -0.40642,-0.37526 -0.19273,-0.15628 -0.38815,-0.30944 -0.57617,-0.47134 -0.24955,-0.23297 -0.50372,-0.46251 -0.7171,-0.73041 -0.21584,-0.27077 -0.42117,-0.54982 -0.60071,-0.8463 -0.11867,-0.21737 -0.22416,-0.44123 -0.32533,-0.66723 -0.10386,-0.22399 -0.2407,-0.42409 -0.43554,-0.58059 -0.54309,-0.40062 -1.13909,-0.72131 -1.75949,-0.98577 -0.83042,-0.35024 -1.6775,-0.65694 -2.52728,-0.95672 -0.42798,-0.14933 -0.85911,-0.29928 -1.2647,-0.50323 0,0 0.27619,-0.18173 0.27619,-0.18173 z"
         inkscape:connector-curvature="0" />
      <path
         style="opacity:1;fill:#000000;fill-opacity:1;stroke:#000000;stroke-width:1.74946556;stroke-linecap:butt;stroke-linejoin:miter;stroke-miterlimit:4;stroke-dasharray:none;stroke-dashoffset:0;stroke-opacity:1"
         id="path1567"
         d="m 73.48573,122.37496 c 0.28291,0.1647 0.58588,0.28855 0.89401,0.39695 0.30612,0.10126 0.61626,0.18942 0.92623,0.27801 0.19724,0.0668 0.39673,0.12393 0.59301,0.19361 0.22185,0.0901 0.44839,0.16654 0.67757,0.23546 0.27216,0.0763 0.53523,0.17962 0.80355,0.26735 0.24426,0.078 0.4847,0.16494 0.71963,0.26777 0.22607,0.0998 0.45866,0.18372 0.6826,0.28832 0.27189,0.11208 0.54164,0.22923 0.81307,0.3424 0.36886,0.13951 0.72302,0.3134 1.09121,0.45434 0.30493,0.11774 0.61391,0.22502 0.91699,0.34742 0.26221,0.10503 0.50364,0.25276 0.74839,0.39201 0.30773,0.18659 0.61515,0.37346 0.9185,0.56715 0.3222,0.20155 0.64893,0.39622 0.978,0.5864 0.3812,0.23363 0.77563,0.44293 1.17035,0.65236 0.49355,0.23987 0.98655,0.48176 1.49245,0.69462 0.54087,0.22443 1.08955,0.42986 1.65289,0.59039 0.3331,0.0874 0.67014,0.15622 1.00753,0.22423 0.23094,0.0386 0.46137,0.0797 0.69434,0.10433 0.27408,0.0407 0.54926,0.073 0.82187,0.123 0.2582,0.0522 0.51907,0.0977 0.77125,0.17485 0.22758,0.0724 0.45527,0.14386 0.6781,0.23008 0.2415,0.0951 0.48538,0.18341 0.72808,0.27535 0.25219,0.096 0.50004,0.20309 0.75274,0.29765 0.22255,0.088 0.45325,0.15296 0.67938,0.23051 0.13358,0.0439 0.27081,0.0825 0.39696,0.14556 0.10372,0.0522 0.21383,0.0887 0.32128,0.13194 0.16303,0.0566 0.32066,0.12702 0.4838,0.18314 0.29822,0.10405 0.59823,0.19954 0.90181,0.28667 0.4168,0.12156 0.83557,0.23631 1.2544,0.35065 0.46333,0.11747 0.92158,0.25316 1.38213,0.38073 0.36264,0.0943 0.71539,0.2189 1.06614,0.34946 0.25153,0.0877 0.47213,0.23459 0.68892,0.38568 0.21305,0.13441 0.40133,0.30155 0.59598,0.46011 0.21473,0.18059 0.42847,0.36171 0.65716,0.52459 0.24305,0.17181 0.49186,0.33501 0.7412,0.49753 0.31529,0.21889 0.64098,0.42021 0.97334,0.61195 0.34649,0.20339 0.70247,0.38914 1.06113,0.56993 0.33177,0.161 0.66189,0.32613 0.98418,0.50552 0.37811,0.21294 0.76333,0.41276 1.14491,0.61943 0.4704,0.24509 0.95464,0.46107 1.44274,0.66803 0.48227,0.21078 0.97073,0.40648 1.45781,0.60561 0.38827,0.15554 0.77035,0.3221 1.13597,0.52558 0.28494,0.16074 0.56468,0.32975 0.83667,0.51149 0.32958,0.25483 0.68688,0.46787 1.04225,0.68385 0.41363,0.24384 0.8233,0.49432 1.2331,0.74459 0.39161,0.23387 0.79423,0.44867 1.18602,0.68206 0.31803,0.18812 0.64225,0.36595 0.94998,0.57076 0.22796,0.15148 0.4365,0.32727 0.63187,0.51834 0.17362,0.16679 0.34099,0.33957 0.50723,0.51373 0.14937,0.1769 0.31035,0.34274 0.47612,0.50417 0.20466,0.21258 0.44311,0.3872 0.68018,0.56134 0.38492,0.26246 0.7625,0.53538 1.14881,0.79583 0.0566,0.0401 0.11321,0.0801 0.16981,0.12018 0,0 -0.27062,0.17208 -0.27062,0.17208 v 0 c -0.0559,-0.0402 -0.11188,-0.0804 -0.16782,-0.12053 -0.38607,-0.26214 -0.76512,-0.5344 -1.15221,-0.79503 -0.23937,-0.17423 -0.48018,-0.34897 -0.68635,-0.56283 -0.16652,-0.16126 -0.3261,-0.3291 -0.47703,-0.50512 -0.16545,-0.17428 -0.33279,-0.34641 -0.50562,-0.51334 -0.19383,-0.18962 -0.40187,-0.3627 -0.62715,-0.51416 -0.30641,-0.20467 -0.62921,-0.383 -0.94554,-0.57167 -0.39189,-0.23325 -0.79445,-0.44818 -1.18568,-0.68271 -0.4098,-0.25021 -0.81858,-0.50214 -1.23309,-0.74449 -0.35651,-0.21582 -0.71456,-0.42915 -1.04598,-0.68302 -0.27227,-0.17998 -0.55196,-0.34764 -0.83555,-0.50924 -0.36323,-0.20353 -0.74373,-0.36893 -1.1294,-0.52526 -0.48703,-0.19902 -0.97477,-0.39618 -1.45707,-0.60664 -0.48882,-0.20829 -0.97467,-0.42378 -1.44619,-0.66929 -0.38258,-0.20597 -0.76876,-0.40513 -1.14746,-0.61817 -0.3229,-0.17782 -0.65285,-0.34268 -0.98419,-0.50409 -0.35817,-0.1822 -0.71385,-0.36907 -1.06063,-0.57233 -0.33346,-0.19172 -0.65964,-0.39405 -0.97682,-0.6118 -0.24989,-0.16271 -0.50039,-0.32452 -0.74295,-0.49808 -0.22872,-0.16402 -0.44322,-0.34564 -0.65946,-0.5256 -0.19378,-0.15839 -0.38221,-0.32399 -0.5945,-0.4581 -0.2148,-0.14944 -0.43421,-0.29247 -0.68289,-0.37997 -0.34843,-0.13219 -0.70038,-0.25373 -1.06082,-0.34968 -0.45979,-0.12941 -0.91832,-0.26271 -1.38114,-0.38117 -0.41989,-0.11411 -0.83993,-0.22788 -1.25794,-0.34874 -0.30484,-0.0875 -0.60635,-0.18323 -0.90651,-0.28559 -0.16373,-0.0571 -0.32341,-0.12494 -0.487,-0.1826 -0.1089,-0.0417 -0.21872,-0.0813 -0.32319,-0.13366 -0.1265,-0.0588 -0.26013,-0.10055 -0.39253,-0.14373 -0.22615,-0.0768 -0.4551,-0.14605 -0.67779,-0.23284 -0.25225,-0.0958 -0.50083,-0.20103 -0.75282,-0.29759 -0.24307,-0.0912 -0.48682,-0.1802 -0.7284,-0.27535 -0.22289,-0.0846 -0.45048,-0.15498 -0.67745,-0.22764 -0.2515,-0.0745 -0.51043,-0.12198 -0.76749,-0.17294 -0.2727,-0.0486 -0.54782,-0.0807 -0.82194,-0.12013 -0.23334,-0.0259 -0.46472,-0.0659 -0.69575,-0.10708 -0.33582,-0.0697 -0.6712,-0.14059 -1.00225,-0.23097 -0.56248,-0.16467 -1.11104,-0.37125 -1.6525,-0.59513 -0.50723,-0.21336 -1.00251,-0.45387 -1.49708,-0.69492 -0.39583,-0.20921 -0.79117,-0.41869 -1.17387,-0.6515 -0.32924,-0.19067 -0.65671,-0.38488 -0.97863,-0.58763 -0.30362,-0.19308 -0.61131,-0.37928 -0.91985,-0.56434 -0.24393,-0.13842 -0.48564,-0.28335 -0.74673,-0.38792 -0.30236,-0.12197 -0.60971,-0.23118 -0.91369,-0.34904 -0.36768,-0.14314 -0.72319,-0.31493 -1.09236,-0.45456 -0.27274,-0.11288 -0.54504,-0.22686 -0.81713,-0.34129 -0.22407,-0.10341 -0.45624,-0.18763 -0.68179,-0.28778 -0.23498,-0.0998 -0.47359,-0.1886 -0.7169,-0.26611 -0.26794,-0.0887 -0.53177,-0.18954 -0.80369,-0.2662 -0.23021,-0.0687 -0.45698,-0.14729 -0.68053,-0.23546 -0.19521,-0.0698 -0.39456,-0.12481 -0.59029,-0.19308 -0.30895,-0.0907 -0.6185,-0.17934 -0.92376,-0.28199 -0.31119,-0.11112 -0.61748,-0.23622 -0.90584,-0.39882 0,0 0.27822,-0.17814 0.27822,-0.17814 z"
         inkscape:connector-curvature="0" />
      <path
         style="opacity:1;fill:#121105;fill-opacity:1;stroke:#000000;stroke-width:1.74946556;stroke-linecap:butt;stroke-linejoin:miter;stroke-miterlimit:4;stroke-dasharray:none;stroke-dashoffset:0;stroke-opacity:1"
         id="path1573"
         d="m 120.06965,149.42715 c -0.12525,-0.29403 -0.29925,-0.55705 -0.49757,-0.80586 -0.19423,-0.18886 -0.36872,-0.40479 -0.59769,-0.55293 -0.23367,-0.0869 -0.47076,-0.16965 -0.70845,-0.2466 -0.30844,-0.08 -0.61022,-0.18553 -0.90083,-0.31607 -0.28336,-0.12171 -0.562,-0.26782 -0.80739,-0.45555 -0.21195,-0.17916 -0.4557,-0.31227 -0.68245,-0.46975 -0.18229,-0.0993 -0.3187,-0.2498 -0.43649,-0.41704 -0.12858,-0.16268 -0.25218,-0.32229 -0.4097,-0.45862 -0.21921,-0.20457 -0.45193,-0.38335 -0.71015,-0.53552 -0.34997,-0.23135 -0.73451,-0.3965 -1.11422,-0.57045 -0.30021,-0.16821 -0.62184,-0.29156 -0.93152,-0.44006 -0.26186,-0.14101 -0.5178,-0.29052 -0.77144,-0.44534 -0.23278,-0.15007 -0.47479,-0.28601 -0.69836,-0.44997 -0.21173,-0.16268 -0.45145,-0.28185 -0.67281,-0.42911 -0.19789,-0.10282 -0.38301,-0.22221 -0.56672,-0.34789 -0.14869,-0.13563 -0.30768,-0.26066 -0.44578,-0.40747 -0.14714,-0.14876 -0.29949,-0.29348 -0.43928,-0.44936 -0.16383,-0.13755 -0.30203,-0.30104 -0.45734,-0.44731 -0.19089,-0.157 -0.34824,-0.34802 -0.52487,-0.51959 -0.14174,-0.15741 -0.28616,-0.31248 -0.46101,-0.43351 -0.21808,-0.15426 -0.45385,-0.27722 -0.70923,-0.35533 -0.27257,-0.0484 -0.53958,-0.12174 -0.81376,-0.16193 -0.32166,-0.0861 -0.64808,-0.13477 -0.97949,-0.15972 -0.33008,-0.0535 -0.65961,-0.10681 -0.99297,-0.13489 -0.26787,-0.0303 -0.54033,0.003 -0.80611,-0.0407 -0.21366,-0.0309 -0.3826,-0.16234 -0.54958,-0.28892 -0.15302,-0.13578 -0.27781,-0.29674 -0.43148,-0.43135 -0.19962,-0.16467 -0.38933,-0.34078 -0.5894,-0.50478 -0.20976,-0.15844 -0.41854,-0.32113 -0.64418,-0.45701 -0.25072,-0.17549 -0.5412,-0.26894 -0.8234,-0.37791 -0.29896,-0.12129 -0.60324,-0.22427 -0.91097,-0.32132 -0.28354,-0.11909 -0.58082,-0.1966 -0.87419,-0.28639 -0.26855,-0.0591 -0.53618,-0.12033 -0.80518,-0.17833 -0.27774,-0.0279 -0.54069,-0.10748 -0.80301,-0.19828 -0.29862,-0.0847 -0.58034,-0.21467 -0.86302,-0.34055 -0.38591,-0.16843 -0.78123,-0.31496 -1.173,-0.4695 -0.41183,-0.18327 -0.84002,-0.32601 -1.25286,-0.50636 -0.35917,-0.14646 -0.71077,-0.3126 -1.07672,-0.44173 -0.24079,-0.11922 -0.49625,-0.20199 -0.75385,-0.27566 -0.2775,-0.0837 -0.54524,-0.19256 -0.81919,-0.28595 -0.23194,-0.0846 -0.45635,-0.18777 -0.68852,-0.27133 -0.18364,-0.0973 -0.37857,-0.16644 -0.54693,-0.29016 -0.16404,-0.12964 -0.32844,-0.25621 -0.50278,-0.37286 -0.20108,-0.12411 -0.40327,-0.24446 -0.60936,-0.36033 -0.19411,-0.0947 -0.38898,-0.19697 -0.56768,-0.31902 -0.2084,-0.12437 -0.4288,-0.23 -0.64976,-0.33058 -0.25181,-0.12869 -0.51472,-0.23927 -0.78419,-0.3255 -0.28236,-0.12106 -0.58565,-0.1738 -0.8819,-0.24942 -0.28749,-0.0517 -0.56604,-0.13936 -0.85297,-0.19361 -0.24762,-0.0152 -0.4822,-0.0936 -0.72444,-0.1395 -0.21048,-0.0797 -0.4276,-0.13607 -0.64218,-0.20313 -0.23957,-0.10659 -0.49271,-0.17043 -0.73759,-0.26224 -0.2293,-0.078 -0.45617,-0.16083 -0.6786,-0.2566 -0.28699,-0.12383 -0.57027,-0.25689 -0.86595,-0.35909 -0.35073,-0.1229 -0.69931,-0.24709 -1.04607,-0.38092 -0.38467,-0.1663 -0.78056,-0.29424 -1.18685,-0.39446 -0.59523,-0.16358 -1.20128,-0.28232 -1.79864,-0.43721 -0.5986,-0.13144 -1.18704,-0.30403 -1.78514,-0.43706 -0.31776,-0.0714 -0.61682,-0.19348 -0.92198,-0.30193 -0.24471,-0.0978 -0.47922,-0.21756 -0.71847,-0.32745 -0.26662,-0.14683 -0.53045,-0.29933 -0.79404,-0.4518 -0.29227,-0.16207 -0.59465,-0.30546 -0.88253,-0.47526 -0.3613,-0.21101 -0.69513,-0.46449 -1.03925,-0.70162 -0.41362,-0.27301 -0.83578,-0.53305 -1.24331,-0.81513 -0.48664,-0.31352 -0.94904,-0.66186 -1.42794,-0.98662 -0.47349,-0.3041 -0.94937,-0.6017 -1.4345,-0.88701 -0.41476,-0.2589 -0.84387,-0.4906 -1.27293,-0.72427 -0.39601,-0.21805 -0.80317,-0.41503 -1.21905,-0.59194 -0.39914,-0.14232 -0.77922,-0.33128 -1.17324,-0.48593 -0.35669,-0.14643 -0.71398,-0.29333 -1.07758,-0.42165 -0.32038,-0.13177 -0.65424,-0.22496 -0.9734,-0.35963 -0.24474,-0.11069 -0.49301,-0.22232 -0.72457,-0.35977 -0.26056,-0.13666 -0.50971,-0.29234 -0.7633,-0.44098 -0.23543,-0.16837 -0.45544,-0.35765 -0.69282,-0.52349 -0.25693,-0.17471 -0.4879,-0.38525 -0.7603,-0.5364 0,0 0.55307,-0.35917 0.55307,-0.35917 v 0 c 0.26832,0.16081 0.50523,0.36526 0.76283,0.54194 0.23426,0.16725 0.45461,0.35317 0.68965,0.51914 0.25266,0.15036 0.50474,0.30103 0.76401,0.43998 0.23163,0.13176 0.47524,0.24564 0.71857,0.35322 0.31928,0.13028 0.65005,0.2286 0.96967,0.35815 0.36314,0.13135 0.72161,0.27608 1.07834,0.42392 0.39274,0.15807 0.77468,0.34254 1.17254,0.48831 0.41744,0.17794 0.82507,0.37823 1.22268,0.59705 0.42946,0.2336 0.85651,0.46965 1.27223,0.72739 0.48531,0.28678 0.9612,0.58669 1.43537,0.89143 0.47843,0.32597 0.94178,0.67351 1.42947,0.98603 0.40971,0.27948 0.83104,0.54133 1.24537,0.81387 0.34346,0.2362 0.67731,0.48804 1.03931,0.69581 0.28937,0.16739 0.59177,0.31086 0.88358,0.47405 0.26293,0.1504 0.52344,0.30579 0.79159,0.44647 0.23729,0.1109 0.47235,0.2267 0.71656,0.32205 0.29959,0.11209 0.59722,0.2263 0.90973,0.30024 0.59634,0.13803 1.18452,0.30906 1.78236,0.44123 0.59891,0.15273 1.20558,0.27303 1.80263,0.43359 0.40961,0.0999 0.80644,0.23493 1.1951,0.39907 0.34568,0.13457 0.69543,0.25446 1.04467,0.37927 0.29676,0.10545 0.58284,0.23699 0.87247,0.36028 0.22136,0.0957 0.44926,0.17385 0.67662,0.25408 0.2436,0.0915 0.49553,0.15676 0.73523,0.25939 0.21274,0.0666 0.42786,0.12402 0.63858,0.19695 0.24088,0.0496 0.47699,0.11917 0.72316,0.1403 0.28645,0.0584 0.56693,0.14181 0.85404,0.19739 0.29754,0.0763 0.60134,0.13154 0.88539,0.25245 0.27009,0.0915 0.53439,0.2023 0.78862,0.33151 0.22304,0.10381 0.44822,0.20735 0.65665,0.33847 0.1805,0.11761 0.37278,0.21884 0.56542,0.31491 0.2057,0.11872 0.41002,0.23823 0.61096,0.36475 0.17558,0.11617 0.33866,0.24602 0.50539,0.37361 0.1671,0.11448 0.35614,0.18565 0.53643,0.27628 0.23004,0.0879 0.45566,0.18628 0.68718,0.27071 0.27141,0.0972 0.53958,0.20139 0.81629,0.28371 0.25791,0.0765 0.51287,0.16091 0.75482,0.28003 0.36442,0.13462 0.71749,0.29826 1.07632,0.4469 0.41321,0.17749 0.83924,0.3238 1.25119,0.50476 0.39361,0.15392 0.79006,0.30163 1.17767,0.46999 0.28142,0.12601 0.56497,0.24753 0.86139,0.33467 0.26083,0.0896 0.52488,0.15652 0.79895,0.19183 0.26959,0.0604 0.54024,0.11518 0.80785,0.18307 0.29294,0.0908 0.58921,0.17062 0.87333,0.28772 0.30815,0.0989 0.61351,0.20231 0.91334,0.32426 0.28662,0.10857 0.5771,0.21153 0.83186,0.38689 0.22592,0.14082 0.4382,0.30297 0.64889,0.46512 0.1991,0.16661 0.39189,0.34026 0.59254,0.50515 0.15169,0.13404 0.27313,0.29606 0.42811,0.42721 0.16207,0.11924 0.32346,0.23969 0.53051,0.26179 0.26609,0.031 0.53604,0.008 0.80268,0.0391 0.33218,0.0315 0.66021,0.0892 0.99044,0.13583 0.33298,0.0275 0.65946,0.0828 0.98417,0.1623 0.27587,0.044 0.54738,0.11237 0.82047,0.16997 0.25847,0.0865 0.49889,0.21402 0.72164,0.37139 0.17478,0.12672 0.323,0.28194 0.46648,0.44259 0.1743,0.17356 0.33411,0.36178 0.52488,0.51841 0.15451,0.14941 0.29761,0.3102 0.46028,0.45123 0.14065,0.15426 0.29065,0.30019 0.43774,0.44818 0.13718,0.14142 0.29148,0.26554 0.43919,0.39569 0.18193,0.1269 0.37095,0.23894 0.56426,0.34761 0.2239,0.14507 0.4617,0.26884 0.67405,0.43198 0.22401,0.16086 0.46411,0.29673 0.69604,0.44553 0.25036,0.15565 0.50573,0.30182 0.76621,0.4402 0.31005,0.14578 0.62764,0.27582 0.92833,0.44105 0.38184,0.17464 0.76552,0.34618 1.11891,0.57561 0.26106,0.1551 0.49745,0.33768 0.72093,0.54331 0.15847,0.14182 0.28815,0.30419 0.4191,0.4709 0.11466,0.16068 0.2462,0.30246 0.42178,0.39877 0.22896,0.15578 0.46996,0.29415 0.68311,0.47279 0.24442,0.18183 0.51885,0.32386 0.79866,0.44309 0.29087,0.12613 0.59077,0.22969 0.89745,0.31049 0.24198,0.0802 0.48926,0.15388 0.72052,0.26041 0.22858,0.15929 0.41006,0.37492 0.60499,0.5721 0.20118,0.25257 0.37673,0.51949 0.50821,0.81562 0,0 -0.57463,0.32719 -0.57463,0.32719 z"
         inkscape:connector-curvature="0" />
      <path
         style="opacity:1;fill:#121105;fill-opacity:1;stroke:#000000;stroke-width:1.74946556;stroke-linecap:butt;stroke-linejoin:miter;stroke-miterlimit:4;stroke-dasharray:none;stroke-dashoffset:0;stroke-opacity:1"
         id="path1575"
         d="m 55.81846,121.85233 c 0.2894,0.27852 0.62475,0.48981 0.96951,0.691 0.32056,0.18234 0.66839,0.304 1.01507,0.42535 0.28062,0.0828 0.56732,0.14606 0.84515,0.23819 0.34651,0.0972 0.68402,0.22384 1.00958,0.37695 0.46293,0.16917 0.88226,0.42792 1.32151,0.64747 0.40173,0.20844 0.77768,0.45914 1.18113,0.66481 0.2974,0.15346 0.59499,0.30755 0.89794,0.44989 0.27028,0.14866 0.53792,0.30267 0.80519,0.45692 0.33179,0.15122 0.63788,0.34815 0.94986,0.53515 0.3819,0.25803 0.78775,0.4742 1.18497,0.70647 0.37576,0.20671 0.74938,0.41251 1.14227,0.5848 0.44434,0.20562 0.87747,0.43317 1.31697,0.64861 0.39986,0.17332 0.79967,0.34691 1.20047,0.51812 0.32223,0.16155 0.64355,0.32805 0.94842,0.521 0.35952,0.17837 0.69361,0.40108 1.03869,0.60452 0.33647,0.1933 0.67504,0.38207 1.02356,0.55285 0.31038,0.16773 0.63337,0.31083 0.93552,0.49338 0.26726,0.16077 0.54327,0.30549 0.81608,0.45632 0.27143,0.16061 0.53669,0.33054 0.80174,0.50146 0.27115,0.19834 0.53747,0.40367 0.80278,0.61002 0.26067,0.18069 0.5283,0.35198 0.80014,0.51541 0.28124,0.19676 0.57225,0.37564 0.86189,0.55982 0.28063,0.19452 0.56868,0.3793 0.87005,0.5401 0.31588,0.17043 0.64756,0.31225 0.97747,0.45386 0.40738,0.1555 0.82433,0.28298 1.2354,0.42782 0.39149,0.14161 0.78831,0.26719 1.18199,0.40213 0.45755,0.15073 0.92577,0.26445 1.38772,0.39995 0.48153,0.1364 0.96709,0.25851 1.44694,0.4009 0.44607,0.12943 0.88872,0.27062 1.33948,0.38339 0.35923,0.10856 0.7277,0.17707 1.09042,0.27151 0.28022,0.0525 0.55135,0.14029 0.83131,0.19398 0.28872,0.0893 0.58659,0.13692 0.87991,0.20805 0.31271,0.0894 0.63175,0.15144 0.94827,0.22571 0.35861,0.0749 0.71747,0.15036 1.07152,0.24524 0.33187,0.0768 0.66221,0.16085 0.99618,0.22832 0.31882,0.061 0.63445,0.1412 0.94918,0.22201 0.36041,0.0828 0.71566,0.1878 1.06705,0.30277 0.34723,0.10795 0.686,0.24098 1.03239,0.35151 0.29571,0.1256 0.61215,0.18026 0.90562,0.30961 0.2744,0.1253 0.5502,0.2461 0.83098,0.35681 0.34023,0.13423 0.68153,0.26497 1.02488,0.3912 0.29837,0.11046 0.59207,0.23292 0.88211,0.36377 0.26248,0.1115 0.52207,0.23132 0.77558,0.36216 0.26676,0.13123 0.53533,0.25939 0.79846,0.39788 0.27937,0.12575 0.53347,0.29837 0.80234,0.44397 0.2554,0.14094 0.51242,0.27702 0.76493,0.42291 0.24055,0.14357 0.47834,0.29119 0.71493,0.44143 0.25185,0.15559 0.5243,0.27498 0.77625,0.42962 0.21157,0.10596 0.4105,0.23463 0.6191,0.34623 0.21561,0.13979 0.42001,0.29441 0.641,0.42581 0.33684,0.22182 0.69185,0.41005 1.04833,0.59767 0.34094,0.16878 0.68855,0.32392 1.02788,0.49585 0.30715,0.1953 0.62967,0.35993 0.95755,0.51646 0.3493,0.15853 0.69237,0.33314 1.04779,0.47761 0.3122,0.12493 0.61192,0.27658 0.9202,0.4106 0.3206,0.13384 0.62038,0.30785 0.93023,0.46284 0.35357,0.1977 0.72148,0.3674 1.07594,0.56363 0.41265,0.22827 0.84542,0.41755 1.26185,0.63932 0.41254,0.2341 0.82333,0.47096 1.2365,0.70416 0.34204,0.16629 0.68786,0.3242 1.03206,0.48622 0.29805,0.1374 0.60627,0.25815 0.89092,0.4223 0.25349,0.15741 0.51234,0.30464 0.767,0.46063 0.34799,0.19029 0.64825,0.44923 0.96421,0.68525 0.24483,0.21103 0.47828,0.43578 0.71015,0.66085 0.22045,0.23365 0.45166,0.45794 0.659,0.70344 0.0302,0.044 0.0604,0.0881 0.0907,0.13212 0,0 -0.56732,0.33342 -0.56732,0.33342 v 0 c -0.0289,-0.0422 -0.0578,-0.0845 -0.0867,-0.1267 -0.20649,-0.24358 -0.4371,-0.46562 -0.65669,-0.6973 -0.22987,-0.22308 -0.46009,-0.44703 -0.70359,-0.65527 -0.31261,-0.23754 -0.61441,-0.49121 -0.96155,-0.67915 -0.25559,-0.15368 -0.51357,-0.30201 -0.76756,-0.45802 -0.28504,-0.15966 -0.58951,-0.28249 -0.88577,-0.41948 -0.34558,-0.16117 -0.69214,-0.32044 -1.0327,-0.49172 -0.41259,-0.23273 -0.8209,-0.47266 -1.23444,-0.70348 -0.41764,-0.22062 -0.85119,-0.40971 -1.26406,-0.63906 -0.35503,-0.19399 -0.72206,-0.36466 -1.07585,-0.5609 -0.30829,-0.15694 -0.6109,-0.32352 -0.93004,-0.45876 -0.30651,-0.13609 -0.60689,-0.28494 -0.91807,-0.41024 -0.35478,-0.14862 -0.69936,-0.32134 -1.04936,-0.48078 -0.3287,-0.15638 -0.64905,-0.32641 -0.95962,-0.51682 -0.33983,-0.17029 -0.68523,-0.32924 -1.02547,-0.49874 -0.3583,-0.18766 -0.71328,-0.37954 -1.05387,-0.59827 -0.22024,-0.1314 -0.42453,-0.28573 -0.64157,-0.42231 -0.2078,-0.11445 -0.41035,-0.23823 -0.6198,-0.34949 -0.254,-0.15174 -0.52461,-0.27464 -0.77621,-0.43112 -0.23687,-0.14872 -0.47414,-0.2963 -0.71481,-0.4387 -0.25076,-0.14745 -0.5089,-0.28015 -0.76272,-0.42227 -0.26705,-0.14798 -0.52335,-0.3159 -0.80169,-0.44277 -0.26412,-0.13629 -0.53151,-0.26632 -0.7983,-0.39727 -0.25405,-0.12787 -0.51213,-0.24826 -0.77409,-0.359 -0.28995,-0.12744 -0.57952,-0.25549 -0.8782,-0.36137 -0.34312,-0.12867 -0.68503,-0.26003 -1.02696,-0.39169 -0.28024,-0.11302 -0.5565,-0.23395 -0.8318,-0.35823 -0.29361,-0.1218 -0.60689,-0.18321 -0.90097,-0.30549 -0.34511,-0.11312 -0.68404,-0.24429 -1.03071,-0.35258 -0.35187,-0.11182 -0.70656,-0.2156 -1.06652,-0.29832 -0.31393,-0.0806 -0.62957,-0.15709 -0.94746,-0.21936 -0.33399,-0.0703 -0.66586,-0.15104 -0.99743,-0.23168 -0.35471,-0.0908 -0.71218,-0.16943 -1.07069,-0.24325 -0.31804,-0.0703 -0.63541,-0.14041 -0.94978,-0.22572 -0.29291,-0.0707 -0.59029,-0.11933 -0.87952,-0.20509 -0.2794,-0.0579 -0.55252,-0.14145 -0.83228,-0.19798 -0.3616,-0.0947 -0.72896,-0.16502 -1.08715,-0.27332 -0.4498,-0.11697 -0.89346,-0.25551 -1.33928,-0.38644 -0.48031,-0.14049 -0.96523,-0.26441 -1.4467,-0.40083 -0.46357,-0.13414 -0.93258,-0.24955 -1.3911,-0.40114 -0.39451,-0.13307 -0.79071,-0.2609 -1.18235,-0.40259 -0.4129,-0.14351 -0.83033,-0.27382 -1.23841,-0.43112 -0.33233,-0.14163 -0.66596,-0.28467 -0.98339,-0.45719 -0.30039,-0.16499 -0.58907,-0.35004 -0.87097,-0.54482 -0.29029,-0.18274 -0.57963,-0.36433 -0.86277,-0.55782 -0.27228,-0.16692 -0.54393,-0.33587 -0.80347,-0.52215 -0.26458,-0.20442 -0.52786,-0.41109 -0.80024,-0.60477 -0.26443,-0.16937 -0.52792,-0.33979 -0.7996,-0.49745 -0.27409,-0.14968 -0.54877,-0.29803 -0.81661,-0.45883 -0.30216,-0.17865 -0.62208,-0.3241 -0.93152,-0.48951 -0.34955,-0.17175 -0.68743,-0.36487 -1.02565,-0.55775 -0.34424,-0.20616 -0.68232,-0.42295 -1.04027,-0.60539 -0.30372,-0.18888 -0.62233,-0.35426 -0.94263,-0.5128 -0.39985,-0.17442 -0.80149,-0.34478 -1.19984,-0.52238 -0.43852,-0.21556 -0.87045,-0.44404 -1.31547,-0.64626 -0.39466,-0.17355 -0.77083,-0.38071 -1.14731,-0.59047 -0.3976,-0.23192 -0.80127,-0.45228 -1.18534,-0.70696 -0.31307,-0.18593 -0.62232,-0.37758 -0.95279,-0.53193 -0.2667,-0.15223 -0.53111,-0.30903 -0.80247,-0.45263 -0.30175,-0.14522 -0.60031,-0.29741 -0.89664,-0.45334 -0.40025,-0.2095 -0.77614,-0.45899 -1.1774,-0.66627 -0.43889,-0.22011 -0.86008,-0.47513 -1.32309,-0.64407 -0.32601,-0.1489 -0.66366,-0.27058 -1.00873,-0.36778 -0.27969,-0.0869 -0.56521,-0.15409 -0.84495,-0.2407 -0.34845,-0.12519 -0.69865,-0.2495 -1.01976,-0.43711 -0.34735,-0.20406 -0.68088,-0.42378 -0.98029,-0.69544 0,0 0.56022,-0.35189 0.56022,-0.35189 z"
         inkscape:connector-curvature="0" />
      <path
         style="opacity:1;fill:#121105;fill-opacity:1;stroke:#000000;stroke-width:1.74946556;stroke-linecap:butt;stroke-linejoin:miter;stroke-miterlimit:4;stroke-dasharray:none;stroke-dashoffset:0;stroke-opacity:1"
         id="path1591"
         d="m 53.42713,125.32464 c 0.37161,0.22698 0.76788,0.40849 1.14733,0.62176 0.40054,0.22133 0.81605,0.41259 1.22821,0.6105 0.39064,0.15806 0.77276,0.33581 1.15981,0.50217 0.3372,0.11611 0.6544,0.28114 0.96666,0.45162 0.34809,0.15906 0.6918,0.32719 1.04167,0.48234 0.26696,0.0935 0.51248,0.23524 0.76852,0.35354 0.19106,0.0615 0.3533,0.18358 0.53069,0.2735 0.21627,0.085 0.42883,0.18157 0.63848,0.28188 0.24847,0.12455 0.4792,0.28521 0.70344,0.44911 0.20678,0.19633 0.42707,0.3759 0.67099,0.5238 0.24446,0.16914 0.50407,0.30918 0.77495,0.43081 0.25175,0.11875 0.52502,0.17437 0.78511,0.26703 0.22173,0.0918 0.45772,0.12255 0.69491,0.14029 0.14401,-0.0186 0.0726,-0.007 0.21419,-0.0341 0,0 -0.52837,0.39742 -0.52837,0.39742 v 0 c -0.14659,0.0211 -0.0722,0.0142 -0.22304,0.0203 -0.24103,-0.0218 -0.47902,-0.0608 -0.7043,-0.15374 -0.26388,-0.0873 -0.53391,-0.15547 -0.78751,-0.27312 -0.27153,-0.12584 -0.5323,-0.26864 -0.7797,-0.43754 -0.24278,-0.15241 -0.4638,-0.33241 -0.67306,-0.52824 -0.22286,-0.15976 -0.4505,-0.31791 -0.69728,-0.43839 -0.21244,-0.098 -0.42634,-0.19316 -0.64254,-0.2826 -0.17417,-0.0939 -0.3399,-0.20594 -0.52804,-0.27187 -0.25338,-0.12114 -0.49989,-0.25797 -0.76414,-0.35499 -0.34998,-0.15841 -0.69677,-0.32356 -1.04476,-0.48628 -0.31181,-0.16817 -0.62835,-0.32844 -0.96286,-0.44725 -0.38605,-0.16938 -0.76999,-0.34357 -1.15929,-0.5055 -0.41311,-0.19842 -0.82947,-0.3908 -1.23006,-0.61418 -0.38247,-0.21324 -0.78038,-0.39728 -1.15645,-0.62195 0,0 0.55644,-0.35628 0.55644,-0.35628 z"
         inkscape:connector-curvature="0" />
      <path
         style="opacity:1;fill:#121105;fill-opacity:1;stroke:#000000;stroke-width:1.74946556;stroke-linecap:butt;stroke-linejoin:miter;stroke-miterlimit:4;stroke-dasharray:none;stroke-dashoffset:0;stroke-opacity:1"
         id="path1593"
         d="m 67.88038,133.26298 c 0.49706,-0.004 0.99174,-0.001 1.48697,0.0428 0.48921,0.0547 0.96119,0.18532 1.41991,0.36006 0.33378,0.0985 0.63819,0.26488 0.95757,0.39797 0.26736,0.13469 0.5389,0.26799 0.79113,0.42988 0.2101,0.11807 0.421,0.23306 0.61757,0.3735 0.25104,0.16639 0.51485,0.31164 0.76997,0.47161 0.30515,0.19338 0.62862,0.34838 0.96024,0.48976 0.33147,0.17519 0.68395,0.29875 1.02872,0.44208 0.24054,0.10932 0.5006,0.15163 0.75038,0.23251 0.22829,0.0399 0.43577,0.12818 0.64433,0.22463 0.17821,0.0543 0.31074,0.1464 0.44164,0.27307 0.0538,0.0809 0.11897,0.15092 0.17874,0.22694 0,0 -0.56969,0.34029 -0.56969,0.34029 v 0 c -0.0589,-0.0731 -0.12002,-0.1431 -0.17428,-0.21982 -0.12434,-0.12184 -0.26182,-0.19707 -0.42731,-0.25563 -0.20661,-0.0958 -0.41667,-0.17017 -0.64,-0.21786 -0.25027,-0.0804 -0.51149,-0.12426 -0.75039,-0.23878 -0.34565,-0.14131 -0.69401,-0.27393 -1.02764,-0.44372 -0.33456,-0.14235 -0.65891,-0.30275 -0.96653,-0.49765 -0.25773,-0.15863 -0.52361,-0.3038 -0.77482,-0.47292 -0.19768,-0.1364 -0.40843,-0.25003 -0.61529,-0.37125 -0.25137,-0.15726 -0.51773,-0.29263 -0.78453,-0.42138 -0.31603,-0.13705 -0.62224,-0.29494 -0.95244,-0.39815 -0.45514,-0.17014 -0.92277,-0.29797 -1.40783,-0.34665 -0.49622,-0.0421 -0.9925,-0.0419 -1.49031,-0.0334 0,0 0.53389,-0.38789 0.53389,-0.38789 z"
         inkscape:connector-curvature="0" />
      <path
         style="opacity:1;fill:#121105;fill-opacity:1;stroke:#000000;stroke-width:1.74946556;stroke-linecap:butt;stroke-linejoin:miter;stroke-miterlimit:4;stroke-dasharray:none;stroke-dashoffset:0;stroke-opacity:1"
         id="path1595"
         d="m 82.4337,139.29606 c 0.7641,0.15161 1.53142,0.28714 2.29982,0.41528 0.75849,0.12306 1.52909,0.17497 2.28302,0.32559 0.27426,0.0357 0.50246,0.16329 0.73875,0.29333 0.1944,0.0855 0.34846,0.21026 0.49797,0.35681 0.16614,0.16099 0.353,0.29853 0.53253,0.44433 0.21398,0.13604 0.4296,0.2729 0.6534,0.39313 0.2715,0.12364 0.55903,0.20382 0.84262,0.29409 0.31696,0.078 0.62119,0.1964 0.93336,0.28988 0.28995,0.0674 0.57175,0.16686 0.84243,0.29019 0.25651,0.13593 0.52888,0.22561 0.80082,0.32288 0.26832,0.095 0.53392,0.19739 0.80148,0.29497 0.2408,0.10548 0.48265,0.21452 0.7092,0.34829 0.19558,0.0892 0.37663,0.20514 0.56667,0.30526 0.26581,0.15993 0.55553,0.27461 0.84621,0.38037 0.41952,0.15037 0.84712,0.28121 1.27672,0.40007 0.29463,0.0631 0.58521,0.14237 0.87941,0.20748 0,0 -0.53846,0.37321 -0.53846,0.37321 v 0 c -0.29377,-0.0678 -0.58493,-0.14613 -0.87928,-0.21152 -0.43115,-0.12133 -0.86109,-0.25096 -1.28259,-0.40243 -0.29325,-0.10894 -0.58545,-0.22481 -0.85495,-0.38551 -0.18936,-0.10253 -0.37452,-0.21245 -0.568,-0.30699 -0.22625,-0.12761 -0.46063,-0.24225 -0.70137,-0.3399 -0.26677,-0.0988 -0.53287,-0.19939 -0.801,-0.29416 -0.27453,-0.0948 -0.54359,-0.19648 -0.80348,-0.3276 -0.2706,-0.11827 -0.55004,-0.21443 -0.83732,-0.28384 -0.31135,-0.097 -0.61775,-0.20938 -0.93405,-0.29049 -0.28664,-0.0925 -0.57903,-0.17178 -0.85107,-0.30346 -0.22522,-0.12474 -0.44614,-0.25963 -0.65947,-0.4032 -0.18252,-0.14561 -0.36994,-0.28618 -0.53775,-0.44883 -0.14486,-0.14295 -0.30182,-0.25542 -0.48783,-0.34205 -0.22871,-0.128 -0.45615,-0.2414 -0.71988,-0.28159 -0.74958,-0.15044 -1.51436,-0.21072 -2.26859,-0.33316 -0.77377,-0.12955 -1.54652,-0.26546 -2.31944,-0.3996 0,0 0.54012,-0.38083 0.54012,-0.38083 z"
         inkscape:connector-curvature="0" />
      <path
         style="opacity:1;fill:#121105;fill-opacity:1;stroke:#000000;stroke-width:1.74946556;stroke-linecap:butt;stroke-linejoin:miter;stroke-miterlimit:4;stroke-dasharray:none;stroke-dashoffset:0;stroke-opacity:1"
         id="path1597"
         d="m 100.72937,146.533 c 0.76821,0.30278 1.55593,0.55016 2.34586,0.78879 1.36073,0.4208 2.7246,0.83274 4.09401,1.22447 0.91483,0.22436 1.78333,0.5758 2.63709,0.96589 0.42658,0.17813 0.78432,0.46167 1.13819,0.75114 0.40714,0.33506 0.80781,0.67799 1.21755,1.00988 0.36519,0.30421 0.75212,0.58123 1.10795,0.89651 0.25103,0.23984 0.48711,0.49474 0.72822,0.74444 0.25642,0.25166 0.4977,0.51746 0.74528,0.77731 0.17776,0.2362 0.38406,0.44062 0.60412,0.63648 0.21619,0.18088 0.43011,0.36515 0.64948,0.54224 0.21619,0.18159 0.44691,0.345 0.67761,0.50765 0.29721,0.21497 0.62927,0.37668 0.95025,0.55295 0.2238,0.0931 0.42075,0.23718 0.63503,0.34807 0.19483,0.0713 0.29273,0.0902 0.46421,0.21603 0.18012,0.11969 0.29042,0.29515 0.40118,0.47528 0.14766,0.21462 0.30657,0.41426 0.40497,0.65723 0.0482,0.16537 0.0276,0.0817 0.0617,0.25106 0,0 -0.58216,0.31088 -0.58216,0.31088 v 0 c -0.0306,-0.1623 -0.0119,-0.0823 -0.0558,-0.24009 -0.095,-0.24014 -0.25511,-0.43515 -0.3995,-0.64714 -0.10765,-0.17244 -0.21466,-0.33981 -0.38993,-0.45217 -0.14249,-0.10294 -0.29999,-0.13626 -0.45821,-0.20892 -0.2113,-0.11601 -0.41189,-0.25232 -0.63272,-0.35091 -0.32109,-0.18027 -0.65458,-0.34255 -0.95319,-0.55931 -0.23285,-0.16292 -0.46554,-0.32687 -0.68319,-0.50986 -0.21751,-0.18046 -0.43314,-0.3633 -0.64891,-0.54577 -0.22157,-0.19681 -0.42749,-0.40456 -0.6067,-0.64164 -0.245,-0.26198 -0.48827,-0.5252 -0.74393,-0.77723 -0.24018,-0.24831 -0.47562,-0.50152 -0.72525,-0.74042 -0.35355,-0.31515 -0.73708,-0.59402 -1.10024,-0.89783 -0.40992,-0.33246 -0.81409,-0.67197 -1.22158,-1.00739 -0.35142,-0.28284 -0.70434,-0.56296 -1.12414,-0.74097 -0.844,-0.39498 -1.70609,-0.7423 -2.6125,-0.97077 -1.36829,-0.3983 -2.73377,-0.80671 -4.09654,-1.22344 -0.79884,-0.2356 -1.59296,-0.48571 -2.37567,-0.77096 0,0 0.54751,-0.37148 0.54751,-0.37148 z"
         inkscape:connector-curvature="0" />
      <path
         style="opacity:1;fill:#000000;fill-opacity:1;stroke:#000000;stroke-width:1.74946556;stroke-linecap:butt;stroke-linejoin:miter;stroke-miterlimit:4;stroke-dasharray:none;stroke-dashoffset:0;stroke-opacity:1"
         id="path1607"
         d="m 51.56485,127.88137 c 0.17326,0.17405 0.37034,0.32137 0.55702,0.47999 0.14937,0.14115 0.31628,0.26224 0.48499,0.37889 0.12106,0.0937 0.2581,0.16344 0.37445,0.26304 0.0969,0.0861 0.18941,0.1641 0.31386,0.20631 0.1051,0.0374 0.20822,0.0863 0.30886,0.13648 0.14474,0.0674 0.29339,0.12474 0.44309,0.18044 0.22734,0.0571 0.45593,0.11032 0.68749,0.14769 0.21045,0.0147 0.41473,0.0664 0.62255,0.0992 0.18441,0.0342 0.37403,0.0151 0.55785,0.0479 0.15409,0.0307 0.30727,0.0543 0.44454,0.13428 0.10222,0.0736 0.21195,0.13929 0.31368,0.21364 0.10369,0.0674 0.19938,0.14982 0.2849,0.23931 0.10809,0.0931 0.20119,0.2008 0.29437,0.30858 0.14388,0.16021 0.31592,0.29274 0.4761,0.43633 0.17391,0.16293 0.38812,0.26097 0.59323,0.37532 0.15582,0.0846 0.32244,0.14908 0.47693,0.23564 0.12737,0.0622 0.23224,0.15932 0.34164,0.24784 0.13674,0.11502 0.30433,0.16351 0.46429,0.23273 0.1354,0.0434 0.23498,0.13432 0.31881,0.24511 0.0995,0.11615 0.22827,0.19767 0.36667,0.2595 0.16644,0.0701 0.31948,0.16587 0.49199,0.22093 0.15323,0.069 0.31117,0.12602 0.46681,0.18948 0.20181,0.087 0.41834,0.14122 0.61083,0.24799 0.15364,0.10145 0.19467,0.26528 0.24379,0.43012 0.0421,0.18603 0.1825,0.24285 0.35422,0.27941 0.27983,0.0318 0.55318,0.0995 0.82861,0.15572 0.20372,0.0339 0.41191,0.0633 0.60376,0.14299 0.15128,0.053 0.25161,0.17939 0.34592,0.30245 0.0877,0.12008 0.12966,0.26793 0.16893,0.40982 0.0323,0.1577 0.0808,0.31115 0.1123,0.46906 0.0254,0.13158 0.0303,0.27005 -0.0714,0.3683 0.76635,0.48133 -0.76249,0.27735 -0.58986,0.1592 0.13919,-0.0953 0.2947,-0.16415 0.44205,-0.24623 0.1875,-0.0192 0.37646,-0.0201 0.56478,-0.0224 0.19495,-0.004 0.38687,-0.0102 0.57835,0.029 0.14783,0.0337 0.29807,0.0511 0.44923,0.0592 0.14661,0.0208 0.26362,0.0956 0.33086,0.22694 0.0175,0.0878 0.0601,0.16384 0.0952,0.2448 0.0455,0.0559 0.091,0.11026 0.14391,0.15959 0.0686,0.0693 0.15608,0.11192 0.24367,0.15238 0.12369,0.069 0.25103,0.11386 0.39028,0.13944 0.099,0.0358 0.19956,0.0642 0.30244,0.0859 0,0 -0.38394,0.26634 -0.38394,0.26634 v 0 c -0.10201,-0.0237 -0.20155,-0.0545 -0.30169,-0.0851 -0.14103,-0.0299 -0.27123,-0.0799 -0.39818,-0.1482 -0.0908,-0.0446 -0.18107,-0.0897 -0.25173,-0.16416 -0.0574,-0.0533 -0.10847,-0.11295 -0.15467,-0.17605 -0.0336,-0.0805 -0.0791,-0.15491 -0.0928,-0.2427 -0.0593,-0.11953 -0.17247,-0.17462 -0.30327,-0.1866 -0.15236,-0.0101 -0.30327,-0.0313 -0.45244,-0.0645 -0.18912,-0.0346 -0.37995,-0.0233 -0.57151,-0.0221 -0.18682,0.003 -0.37666,-2.6e-4 -0.56067,0.0351 0.8804,-0.54032 0.42953,-0.10686 0.33296,-0.24836 -0.0116,-0.017 0.0398,0.0133 0.0604,0.0132 0.0149,-4e-5 0.0565,-0.0141 0.0442,-0.006 -0.11466,0.0766 -0.23634,0.14202 -0.35452,0.21303 0.12526,-0.0575 0.1183,-0.20125 0.0966,-0.32016 -0.0305,-0.15716 -0.0809,-0.30876 -0.11085,-0.46595 -0.037,-0.13618 -0.078,-0.27783 -0.16033,-0.39381 -0.091,-0.11742 -0.18618,-0.23335 -0.33235,-0.28127 -0.19196,-0.0717 -0.39484,-0.10413 -0.59604,-0.13858 -0.27583,-0.058 -0.55075,-0.1199 -0.83068,-0.1558 -0.1826,-0.0468 -0.33587,-0.12142 -0.38184,-0.31962 -0.0471,-0.15299 -0.0758,-0.30821 -0.22371,-0.39967 -0.19325,-0.10155 -0.40725,-0.15794 -0.60783,-0.24359 -0.1558,-0.0614 -0.31258,-0.12016 -0.46626,-0.18664 -0.17159,-0.0604 -0.32691,-0.15524 -0.49456,-0.22538 -0.14293,-0.0686 -0.27778,-0.15463 -0.38044,-0.27754 -0.081,-0.10439 -0.17583,-0.18474 -0.3044,-0.22558 -0.16494,-0.0679 -0.33186,-0.12753 -0.47191,-0.24321 -0.10805,-0.0862 -0.2113,-0.18085 -0.33717,-0.24083 -0.15639,-0.0827 -0.31934,-0.15299 -0.47501,-0.2373 -0.20847,-0.11492 -0.42264,-0.21918 -0.59837,-0.38433 -0.16229,-0.14435 -0.33611,-0.27784 -0.48108,-0.4401 -0.0935,-0.10642 -0.18759,-0.21215 -0.29424,-0.30571 -0.0853,-0.0863 -0.17859,-0.1662 -0.28078,-0.23169 -0.10314,-0.0703 -0.20528,-0.14249 -0.31016,-0.20972 -0.13588,-0.0705 -0.2856,-0.0925 -0.4346,-0.12129 -0.18476,-0.0246 -0.37327,-0.0137 -0.55727,-0.0487 -0.20708,-0.0349 -0.41192,-0.0817 -0.62154,-0.10011 -0.23348,-0.0403 -0.46561,-0.0915 -0.69402,-0.15415 -0.15082,-0.0571 -0.30158,-0.11373 -0.44721,-0.18327 -0.0999,-0.0488 -0.20192,-0.0953 -0.30641,-0.13244 -0.12454,-0.0506 -0.22249,-0.13149 -0.3222,-0.21986 -0.11726,-0.0958 -0.25109,-0.16806 -0.37105,-0.26045 -0.16817,-0.11957 -0.33607,-0.24085 -0.48577,-0.38352 -0.18658,-0.15861 -0.3808,-0.30854 -0.55876,-0.47726 0,0 0.39613,-0.24882 0.39613,-0.24882 z"
         inkscape:connector-curvature="0" />
      <path
         style="opacity:1;fill:#000000;fill-opacity:1;stroke:#000000;stroke-width:1.74946556;stroke-linecap:butt;stroke-linejoin:miter;stroke-miterlimit:4;stroke-dasharray:none;stroke-dashoffset:0;stroke-opacity:1"
         id="path1609"
         d="m 73.05209,138.89286 c 0.47755,0.0311 0.95034,0.10318 1.42096,0.18797 0.46967,0.0846 0.93913,0.17326 1.40168,0.2914 0.27859,0.0668 0.55288,0.15613 0.8074,0.28847 0.18547,0.0784 0.33054,0.21477 0.47996,0.34497 0.18258,0.18635 0.37635,0.36328 0.57423,0.53356 0.21579,0.18203 0.46137,0.31358 0.71673,0.42972 0.26527,0.10372 0.53609,0.19042 0.80959,0.26945 0.22092,0.0538 0.44471,0.0988 0.66158,0.16786 0.19153,0.0591 0.3847,0.11447 0.57305,0.18322 0.18657,0.0587 0.37486,0.11403 0.56473,0.16169 0.15496,0.0487 0.29802,0.12466 0.44892,0.18278 0.20732,0.0599 0.41913,0.0972 0.63338,0.12196 0.32983,0.0161 0.65681,0.0612 0.98499,0.0959 0.22626,0.0423 0.45191,0.084 0.67419,0.14355 0.17457,0.0392 0.34431,0.048 0.49202,0.15618 0.0933,0.0996 0.10325,0.23209 0.10935,0.36166 -0.01,0.15173 0.0892,0.25202 0.19569,0.34643 0.25365,0.18649 0.56324,0.27985 0.85957,0.37672 0.33932,0.1051 0.67655,0.21673 1.01523,0.32364 0.26328,0.0638 0.51509,0.16007 0.76457,0.26364 0.25714,0.11241 0.51992,0.21187 0.78543,0.30263 0.16528,0.0689 0.32951,0.13713 0.49072,0.21482 0,0 -0.38974,0.25709 -0.38974,0.25709 v 0 c -0.15867,-0.0776 -0.32146,-0.14442 -0.48455,-0.21226 -0.26589,-0.0927 -0.52969,-0.1918 -0.78782,-0.30449 -0.248,-0.10353 -0.50047,-0.19353 -0.76091,-0.26132 -0.33766,-0.10885 -0.67477,-0.21936 -1.01336,-0.32544 -0.30232,-0.10038 -0.61885,-0.19455 -0.87569,-0.38919 -0.11182,-0.10232 -0.22483,-0.21548 -0.21513,-0.37806 -0.004,-0.11381 -0.005,-0.23719 -0.0886,-0.32451 -0.14361,-0.0991 -0.31649,-0.0975 -0.4807,-0.1436 -0.21994,-0.0584 -0.44385,-0.0993 -0.66779,-0.13939 -0.32801,-0.0367 -0.65531,-0.0786 -0.98509,-0.0963 -0.21761,-0.0264 -0.43504,-0.0621 -0.6442,-0.12928 -0.14776,-0.0608 -0.2909,-0.13197 -0.44438,-0.17867 -0.1903,-0.0501 -0.38043,-0.10277 -0.56696,-0.16525 -0.18896,-0.0654 -0.38036,-0.12377 -0.57172,-0.18174 -0.21751,-0.065 -0.43962,-0.11273 -0.65958,-0.16837 -0.27455,-0.0811 -0.54691,-0.16855 -0.81275,-0.27537 -0.25875,-0.11848 -0.5058,-0.25598 -0.72438,-0.44056 -0.19682,-0.17202 -0.39154,-0.3476 -0.57642,-0.53225 -0.14728,-0.12765 -0.29085,-0.259 -0.47326,-0.33589 -0.2525,-0.12751 -0.52158,-0.21734 -0.79647,-0.28332 -0.46102,-0.1169 -0.92812,-0.20749 -1.39619,-0.29118 -0.47292,-0.0837 -0.94809,-0.15367 -1.42815,-0.17917 0,0 0.37989,-0.26964 0.37989,-0.26964 z"
         inkscape:connector-curvature="0" />
      <path
         style="opacity:1;fill:#000000;fill-opacity:1;stroke:#000000;stroke-width:1.74946556;stroke-linecap:butt;stroke-linejoin:miter;stroke-miterlimit:4;stroke-dasharray:none;stroke-dashoffset:0;stroke-opacity:1"
         id="path1611"
         d="m 93.33324,148.50796 c 0.30174,0.31987 0.69574,0.53987 1.07353,0.75805 0.49675,0.28291 1.00158,0.55133 1.49784,0.83523 0.55874,0.34366 1.13727,0.65041 1.73522,0.91952 0.7043,0.31665 1.4443,0.5403 2.17809,0.77612 0.42632,0.11982 0.84125,0.27372 1.26043,0.41495 0.1808,0.0701 0.34695,0.17001 0.51973,0.2566 0.23079,0.12006 0.45874,0.24351 0.69847,0.34536 0.31512,0.12809 0.64466,0.22144 0.97369,0.30725 0.3745,0.10559 0.74745,0.21591 1.11214,0.35199 0.33208,0.11177 0.65044,0.25912 0.96463,0.41319 0.31645,0.15919 0.64121,0.30305 0.97101,0.43248 0.24601,0.0926 0.48983,0.17933 0.75011,0.2196 0.30054,0.0512 0.59614,0.12392 0.89208,0.19613 0.28297,0.0778 0.57147,0.14399 0.82786,0.29072 0.18578,0.10782 0.36965,0.21806 0.54116,0.3477 0.17091,0.12527 0.35355,0.23188 0.5303,0.34792 0.1536,0.10753 0.31004,0.20899 0.46494,0.31486 0.16708,0.11357 0.33898,0.22007 0.50933,0.32886 0.21338,0.10977 0.40159,0.25912 0.60105,0.39098 0.30663,0.20236 0.66182,0.31108 1.01062,0.41625 0.23893,0.036 0.4427,0.14908 0.64897,0.26497 0.0769,0.0619 0.12946,0.14672 0.19229,0.22194 0.0638,0.11493 0.15002,0.21168 0.23296,0.3125 0.053,0.0649 0.0827,0.14079 0.11187,0.21799 0,0 -0.40839,0.2268 -0.40839,0.2268 v 0 c -0.0267,-0.0727 -0.0541,-0.14374 -0.10466,-0.20408 -0.0836,-0.10016 -0.16843,-0.19812 -0.23375,-0.31185 -0.0591,-0.071 -0.10965,-0.15103 -0.18292,-0.2081 -0.20105,-0.1169 -0.40321,-0.22145 -0.63654,-0.26081 -0.35224,-0.10889 -0.7104,-0.22021 -1.0203,-0.4257 -0.19991,-0.13138 -0.39025,-0.2775 -0.60267,-0.38905 -0.17134,-0.10846 -0.3436,-0.21575 -0.51129,-0.32967 -0.15356,-0.10695 -0.31127,-0.20582 -0.46379,-0.31414 -0.17823,-0.11525 -0.35958,-0.22546 -0.53114,-0.35097 -0.17111,-0.12679 -0.35405,-0.23528 -0.53775,-0.3427 -0.25463,-0.14057 -0.53902,-0.20675 -0.81817,-0.28201 -0.29566,-0.0725 -0.5918,-0.14215 -0.89243,-0.19149 -0.26099,-0.045 -0.50625,-0.13515 -0.75312,-0.22967 -0.32981,-0.13253 -0.65563,-0.27654 -0.97376,-0.43495 -0.31273,-0.15307 -0.62933,-0.29925 -0.95959,-0.41097 -0.36439,-0.13394 -0.73668,-0.24364 -1.11061,-0.34761 -0.33091,-0.0879 -0.66277,-0.18106 -0.97961,-0.31152 -0.24,-0.10428 -0.46967,-0.22771 -0.70281,-0.34603 -0.16988,-0.0871 -0.33561,-0.183 -0.51381,-0.25288 -0.41422,-0.14617 -0.82608,-0.29886 -1.24809,-0.42224 -0.73438,-0.23846 -1.47474,-0.46486 -2.18101,-0.78015 -0.5995,-0.27019 -1.17967,-0.57741 -1.74054,-0.92115 -0.49743,-0.28274 -1.00251,-0.55165 -1.50001,-0.83417 -0.38335,-0.22226 -0.78065,-0.44571 -1.09174,-0.76578 0,0 0.40018,-0.24027 0.40018,-0.24027 z"
         inkscape:connector-curvature="0" />
      <path
         style="opacity:1;fill:#000000;fill-opacity:1;stroke:#000000;stroke-width:1.74946556;stroke-linecap:butt;stroke-linejoin:miter;stroke-miterlimit:4;stroke-dasharray:none;stroke-dashoffset:0;stroke-opacity:1"
         id="path1613"
         d="m 115.9341,159.70951 c 0.4006,0.17263 0.82153,0.29578 1.23487,0.43469 0.41059,0.15381 0.82216,0.31196 1.21266,0.51235 0.24721,0.12293 0.43499,0.30836 0.59603,0.52777 0.10155,0.16135 0.17764,0.3364 0.25391,0.51059 0.0736,0.19641 0.13386,0.39892 0.1781,0.60414 0.0454,0.14693 0.0955,0.29274 0.12614,0.44367 0.0139,0.11953 0.0603,0.23184 0.11048,0.34016 0.0651,0.12234 0.15708,0.22349 0.23038,0.34111 0.0886,0.17048 0.21851,0.31484 0.32686,0.47292 0.0923,0.12979 0.20224,0.24571 0.28659,0.38088 0,0 -0.40378,0.23493 -0.40378,0.23493 v 0 c -0.0836,-0.13457 -0.19299,-0.25028 -0.28362,-0.38019 -0.10914,-0.15843 -0.24146,-0.30176 -0.33016,-0.47321 -0.0751,-0.11846 -0.16849,-0.22151 -0.23385,-0.34592 -0.0519,-0.11126 -0.10195,-0.22706 -0.11648,-0.34989 -0.0279,-0.15153 -0.0769,-0.29773 -0.12291,-0.44447 -0.0421,-0.20254 -0.10206,-0.40163 -0.17453,-0.59515 -0.0756,-0.17076 -0.14772,-0.34398 -0.24736,-0.5026 -0.15694,-0.21357 -0.34033,-0.39265 -0.58146,-0.51155 -0.38789,-0.19882 -0.79519,-0.35901 -1.20364,-0.51006 -0.417,-0.139 -0.84032,-0.26335 -1.24677,-0.43124 0,0 0.38854,-0.25893 0.38854,-0.25893 z"
         inkscape:connector-curvature="0" />
      <path
         style="opacity:1;fill:#000000;fill-opacity:1;stroke:#000000;stroke-width:1.74946556;stroke-linecap:butt;stroke-linejoin:miter;stroke-miterlimit:4;stroke-dasharray:none;stroke-dashoffset:0;stroke-opacity:1"
         id="path1615"
         d="m 49.4971,130.82266 c 0.31329,0.29391 0.67889,0.5238 1.0639,0.71071 0.39861,0.19416 0.82851,0.29778 1.25591,0.40424 0.27218,0.0533 0.537,0.12787 0.79778,0.22116 0.22798,0.0881 0.44108,0.20685 0.66014,0.31388 0.28328,0.15112 0.5665,0.3029 0.85034,0.45321 0.24294,0.13101 0.47733,0.27603 0.71081,0.42275 0.15424,0.11283 0.30897,0.21881 0.42401,0.37337 0.10352,0.14577 0.18118,0.30714 0.27136,0.46073 0.0737,0.1671 0.19954,0.28917 0.33147,0.4103 0.22553,0.18975 0.47563,0.34633 0.72409,0.50369 0.28491,0.18532 0.59022,0.3381 0.89193,0.49415 0.29683,0.15472 0.60211,0.29211 0.91261,0.41694 0.20461,0.0766 0.3926,0.18007 0.57414,0.2997 0.15548,0.11382 0.30905,0.23082 0.46997,0.337 0.21018,0.14524 0.43736,0.26387 0.66145,0.38598 0.29343,0.13305 0.57465,0.2906 0.86492,0.42997 0.25149,0.1144 0.49039,0.25208 0.73442,0.38097 0.17753,0.0922 0.3636,0.16337 0.54787,0.24007 0,0 -0.38682,0.25852 -0.38682,0.25852 v 0 c -0.18562,-0.0762 -0.37089,-0.15195 -0.54933,-0.24436 -0.2432,-0.12846 -0.48126,-0.26605 -0.73154,-0.38091 -0.29009,-0.14151 -0.57407,-0.29527 -0.8669,-0.43122 -0.22607,-0.12203 -0.45456,-0.24175 -0.66624,-0.38791 -0.16007,-0.10775 -0.3149,-0.22306 -0.47119,-0.33612 -0.1779,-0.11895 -0.36542,-0.21705 -0.56565,-0.29417 -0.31007,-0.12793 -0.61557,-0.2663 -0.91296,-0.42169 -0.30314,-0.15616 -0.60931,-0.30994 -0.89469,-0.49718 -0.25118,-0.15881 -0.50423,-0.31661 -0.73213,-0.50837 -0.13529,-0.12392 -0.26374,-0.25101 -0.34008,-0.42147 -0.0885,-0.15254 -0.16493,-0.31256 -0.26795,-0.45655 -0.11215,-0.14899 -0.26581,-0.24919 -0.41398,-0.35973 -0.23089,-0.14818 -0.4651,-0.29072 -0.70659,-0.42131 -0.28266,-0.1521 -0.56639,-0.30191 -0.85044,-0.45128 -0.2175,-0.10752 -0.43157,-0.22168 -0.65862,-0.30863 -0.25835,-0.0929 -0.5223,-0.16274 -0.79082,-0.22035 -0.42908,-0.10775 -0.85908,-0.21808 -1.25863,-0.41405 -0.38791,-0.19199 -0.75448,-0.42572 -1.07832,-0.71455 0,0 0.39576,-0.24749 0.39576,-0.24749 z"
         inkscape:connector-curvature="0" />
      <path
         style="opacity:1;fill:#000000;fill-opacity:1;stroke:#000000;stroke-width:1.87033772;stroke-linecap:butt;stroke-linejoin:miter;stroke-miterlimit:4;stroke-dasharray:none;stroke-dashoffset:0;stroke-opacity:1"
         id="path1617"
         d="m 65.84199,140.81166 c 0.47773,0.23464 1.01116,0.34044 1.52937,0.44726 0.57236,0.10562 1.14888,0.18392 1.72467,0.26745 0.39605,0.0502 0.78876,0.12682 1.17728,0.2182 0.39585,0.0827 0.78838,0.18621 1.17092,0.31763 0.31704,0.0932 0.60658,0.25295 0.88936,0.42032 0.34293,0.21594 0.69483,0.41573 1.05465,0.60202 0.43493,0.20758 0.87789,0.39545 1.33477,0.54892 0.30822,0.10389 0.61327,0.21486 0.90746,0.35404 0.2719,0.11956 0.53182,0.26271 0.80679,0.3754 0.33539,0.12705 0.67115,0.25319 1.0043,0.38593 0.2048,0.0765 0.40236,0.17154 0.59657,0.27143 0.17276,0.096 0.34044,0.2038 0.50444,0.31448 0.2191,0.14706 0.45363,0.26782 0.67819,0.40571 0.27503,0.18727 0.55686,0.36186 0.84312,0.53153 0.23114,0.15337 0.47827,0.28028 0.71149,0.43003 0.15258,0.0783 0.2935,0.15593 0.415,0.27797 0,0 -0.39787,0.24405 -0.39787,0.24405 v 0 c -0.11995,-0.1173 -0.26168,-0.19026 -0.40792,-0.2707 -0.23321,-0.14797 -0.47739,-0.27811 -0.70799,-0.43048 -0.28654,-0.17002 -0.56761,-0.347 -0.84544,-0.53076 -0.22575,-0.13714 -0.46007,-0.25972 -0.68007,-0.40652 -0.16497,-0.10724 -0.3297,-0.21722 -0.5036,-0.30912 -0.19158,-0.10028 -0.38801,-0.19283 -0.58999,-0.27021 -0.33319,-0.13233 -0.66751,-0.2619 -1.00342,-0.38724 -0.27522,-0.11457 -0.53836,-0.25396 -0.81037,-0.3757 -0.29253,-0.13688 -0.59496,-0.24784 -0.90029,-0.35266 -0.45706,-0.1578 -0.90111,-0.34722 -1.3376,-0.55525 -0.36112,-0.18687 -0.71471,-0.38654 -1.05989,-0.60159 -0.28092,-0.16461 -0.56887,-0.32 -0.88242,-0.41366 -0.38211,-0.12926 -0.77341,-0.2321 -1.1684,-0.31377 -0.38734,-0.089 -0.77817,-0.16483 -1.17225,-0.21708 -0.57466,-0.0852 -1.15005,-0.16543 -1.72111,-0.27319 -0.52509,-0.10922 -1.06232,-0.21857 -1.55035,-0.44744 0,0 0.3906,-0.257 0.3906,-0.257 z"
         inkscape:connector-curvature="0" />
      <path
         style="opacity:1;fill:#000000;fill-opacity:1;stroke:#000000;stroke-width:1.74946556;stroke-linecap:butt;stroke-linejoin:miter;stroke-miterlimit:4;stroke-dasharray:none;stroke-dashoffset:0;stroke-opacity:1"
         id="path1619"
         d="m 84.83672,148.38503 c 0.41343,0.25228 0.87591,0.41804 1.32303,0.60118 0.54283,0.22441 1.09681,0.41972 1.63643,0.65185 0.41055,0.17268 0.79402,0.39884 1.17093,0.63412 0.32038,0.21907 0.6422,0.43636 0.96108,0.65766 0.38882,0.27261 0.78432,0.53053 1.20838,0.74477 0.5167,0.28549 1.06028,0.51603 1.60068,0.75171 0.42413,0.18647 0.85836,0.34767 1.27454,0.55205 0.34815,0.17415 0.66415,0.40389 0.99169,0.61269 0.3336,0.21036 0.65951,0.43579 0.97506,0.67272 0.28229,0.22117 0.5847,0.41412 0.89394,0.5951 0.23073,0.13234 0.46194,0.26327 0.6895,0.40116 0.35083,0.20588 0.72638,0.36484 1.10386,0.51459 0.46217,0.18505 0.93444,0.34896 1.41507,0.47935 0.26064,0.0869 0.531,0.13498 0.79247,0.21766 0.17483,0.0404 0.3487,0.0862 0.5249,0.12091 0.21234,0.0508 0.41962,0.11846 0.6303,0.17502 0.18338,0.0606 0.36634,0.11543 0.53859,0.20387 0.0271,0.0171 0.0543,0.0342 0.0814,0.0513 0,0 -0.39184,0.25292 -0.39184,0.25292 v 0 c -0.0265,-0.0159 -0.053,-0.0318 -0.0795,-0.0477 -0.17117,-0.0834 -0.35144,-0.13933 -0.53262,-0.19684 -0.20931,-0.0585 -0.41653,-0.12393 -0.62862,-0.17238 -0.17699,-0.0369 -0.35358,-0.078 -0.5281,-0.12474 -0.25939,-0.0823 -0.52762,-0.13256 -0.78572,-0.22022 -0.47969,-0.13573 -0.95171,-0.30126 -1.41481,-0.48543 -0.3809,-0.15042 -0.76063,-0.30867 -1.11427,-0.51684 -0.22798,-0.13675 -0.46003,-0.26608 -0.689,-0.40105 -0.30825,-0.18484 -0.61095,-0.37891 -0.89401,-0.60093 -0.31576,-0.23503 -0.63981,-0.46104 -0.97342,-0.66974 -0.32601,-0.20836 -0.64114,-0.43663 -0.98896,-0.60833 -0.41455,-0.20332 -0.84645,-0.36597 -1.2678,-0.55412 -0.54077,-0.23759 -1.08571,-0.46785 -1.60406,-0.75252 -0.42558,-0.21602 -0.82333,-0.47484 -1.21412,-0.74844 -0.31959,-0.2194 -0.64138,-0.43564 -0.96064,-0.65546 -0.37459,-0.2344 -0.75671,-0.45734 -1.16452,-0.63004 -0.53819,-0.23299 -1.09071,-0.42936 -1.63266,-0.65331 -0.45257,-0.18452 -0.91909,-0.35102 -1.34064,-0.60064 0,0 0.39346,-0.25193 0.39346,-0.25193 z"
         inkscape:connector-curvature="0" />
      <path
         style="opacity:1;fill:#000000;fill-opacity:1;stroke:#000000;stroke-width:1.74946556;stroke-linecap:butt;stroke-linejoin:miter;stroke-miterlimit:4;stroke-dasharray:none;stroke-dashoffset:0;stroke-opacity:1"
         id="path1621"
         d="m 106.37821,159.69633 c 0.42164,0.10213 0.84414,0.20107 1.26728,0.297 0.74054,0.15967 1.47231,0.35507 2.19362,0.58609 0.55016,0.18415 1.09433,0.39182 1.6005,0.67711 0.31555,0.20748 0.59444,0.46423 0.89078,0.69759 0.26588,0.21683 0.55425,0.40274 0.85101,0.57384 0.46087,0.24957 0.932,0.47689 1.41096,0.68926 0.41636,0.17299 0.84284,0.30738 1.24016,0.52257 0.16987,0.0701 0.2575,0.19563 0.34917,0.34344 0.16348,0.22756 0.34043,0.44267 0.53542,0.64378 0.21718,0.23147 0.44159,0.45659 0.67144,0.67555 0.19291,0.1837 0.38644,0.36677 0.59226,0.53595 0.12334,0.11618 0.25094,0.22699 0.37911,0.3379 0.0928,0.0685 0.18468,0.13881 0.27027,0.21613 0,0 -0.39703,0.24635 -0.39703,0.24635 v 0 c -0.0861,-0.0762 -0.17745,-0.14651 -0.26936,-0.21559 -0.1287,-0.10974 -0.25473,-0.22187 -0.37766,-0.33799 -0.20406,-0.17241 -0.39835,-0.35565 -0.59189,-0.53976 -0.23047,-0.21889 -0.45195,-0.44759 -0.6706,-0.67815 -0.19834,-0.20284 -0.37715,-0.42104 -0.5461,-0.64892 -0.0885,-0.14014 -0.17098,-0.25774 -0.33243,-0.32581 -0.39352,-0.21678 -0.81882,-0.34883 -1.23151,-0.52378 -0.48048,-0.21408 -0.95339,-0.44274 -1.41755,-0.69049 -0.29991,-0.17056 -0.58848,-0.35979 -0.85575,-0.57876 -0.29507,-0.23113 -0.56919,-0.49009 -0.88537,-0.69281 -0.50119,-0.28441 -1.0401,-0.4928 -1.58566,-0.67578 -0.72208,-0.22929 -1.45372,-0.425 -2.1956,-0.57985 -0.42832,-0.0938 -0.85579,-0.1919 -1.28262,-0.29219 0,0 0.38715,-0.26268 0.38715,-0.26268 z"
         inkscape:connector-curvature="0" />
      <path
         style="opacity:1;fill:#000000;fill-opacity:1;stroke:#000000;stroke-width:1.74946556;stroke-linecap:butt;stroke-linejoin:miter;stroke-miterlimit:4;stroke-dasharray:none;stroke-dashoffset:0;stroke-opacity:1"
         id="path1623"
         d="m 48.73205,134.42834 c 0.19298,0.25591 0.44067,0.46022 0.69872,0.6472 0.26586,0.17596 0.56291,0.29807 0.85078,0.43294 0.36571,0.17579 0.73563,0.34378 1.0899,0.54193 0.4303,0.23498 0.8574,0.47508 1.29514,0.69604 0.48336,0.23886 0.99284,0.41726 1.49415,0.61349 0.33758,0.10551 0.65754,0.25428 0.97479,0.40864 0.12651,0.0771 0.21192,0.1912 0.29916,0.30668 0.0961,0.16325 0.21962,0.30641 0.34563,0.44687 0.22141,0.24134 0.47749,0.44752 0.73137,0.65321 0.27951,0.22951 0.56384,0.45195 0.86417,0.65342 0.32404,0.23349 0.63859,0.47942 0.97402,0.69666 0.35366,0.21242 0.71296,0.4155 1.07373,0.61556 0.30266,0.1552 0.61197,0.29662 0.91623,0.44853 0.26056,0.1153 0.50427,0.2632 0.75622,0.39534 0.25052,0.13764 0.50015,0.27622 0.74981,0.41533 0.22835,0.11925 0.43897,0.2664 0.65845,0.4005 0.26131,0.16198 0.50711,0.34722 0.77105,0.50493 0.31416,0.17518 0.63842,0.33143 0.96068,0.49096 0.37464,0.2055 0.77981,0.34168 1.17594,0.49818 0.35196,0.15831 0.71684,0.28766 1.06807,0.4471 0.21883,0.0735 0.36443,0.22503 0.50513,0.39841 0.15335,0.19826 0.32109,0.38089 0.51629,0.53806 0.32622,0.26194 0.71843,0.3915 1.10973,0.52017 0.53799,0.17666 1.08203,0.33298 1.62541,0.49166 0.40417,0.11895 0.79317,0.27983 1.18457,0.43358 0.28921,0.11235 0.57931,0.22215 0.87095,0.32807 0.27599,0.0882 0.53376,0.22035 0.80143,0.32893 0.3171,0.1433 0.63471,0.2825 0.96266,0.39939 0.26819,0.10175 0.5386,0.192 0.79981,0.31108 0.37218,0.14962 0.75073,0.28233 1.12961,0.41377 0.51394,0.15733 1.03084,0.3045 1.54195,0.47101 0.53498,0.18558 1.0695,0.36922 1.61448,0.52325 0.59224,0.17748 1.20331,0.26917 1.81227,0.36578 0.39711,0.0563 0.79328,0.11184 1.18832,0.18098 0.20177,0.0416 0.39045,0.10766 0.54938,0.24029 0.14822,0.17885 0.28764,0.36515 0.42945,0.54924 0.21077,0.26203 0.43041,0.51824 0.67484,0.74952 0.23302,0.19997 0.4696,0.39706 0.7146,0.58259 0.31344,0.26556 0.6753,0.46019 1.03631,0.65171 0.3769,0.17601 0.76442,0.32685 1.15156,0.47818 0.32228,0.12539 0.6408,0.25576 0.94485,0.4211 0.29712,0.1638 0.57648,0.35685 0.86456,0.53553 0.31698,0.19013 0.61537,0.40793 0.91358,0.62572 0.27515,0.20574 0.53707,0.42885 0.81495,0.63076 0.37646,0.27705 0.77742,0.51864 1.16738,0.77584 0.31566,0.23126 0.65161,0.43171 0.98166,0.64113 0.34054,0.25336 0.71049,0.45777 1.09501,0.63501 0.45069,0.20916 0.93574,0.32092 1.41182,0.45427 0.56617,0.17817 1.13869,0.33458 1.70764,0.50322 0.70297,0.18123 1.38576,0.42604 2.07449,0.65293 0.32049,0.10951 0.63588,0.23634 0.91692,0.42701 0.20892,0.13162 0.38971,0.30167 0.58309,0.45403 0.24618,0.18646 0.49407,0.37068 0.74392,0.55228 0.26438,0.19091 0.53003,0.3808 0.80365,0.55831 0.24303,0.15446 0.48567,0.30986 0.73074,0.46107 0.31869,0.21336 0.65694,0.39304 0.99658,0.57014 0.46845,0.23556 0.949,0.4444 1.43302,0.64537 0.46062,0.20588 0.93044,0.39178 1.388,0.60438 0.287,0.11357 0.54509,0.27499 0.78278,0.46975 0.18839,0.18682 0.401,0.3415 0.62167,0.48739 0.34853,0.24195 0.72149,0.43447 1.11219,0.59798 0.58127,0.23643 1.1741,0.44278 1.75819,0.67173 0.60437,0.23752 1.21673,0.45374 1.83053,0.66542 0.40572,0.15236 0.82352,0.27508 1.22507,0.43815 0.19753,0.0716 0.37546,0.1816 0.55577,0.28683 0.1911,0.12132 0.39147,0.22646 0.59071,0.33349 0.22088,0.14352 0.45404,0.2659 0.67252,0.41334 0.18929,0.14026 0.38499,0.27155 0.58135,0.40149 0.13841,0.12419 0.28982,0.23379 0.42048,0.3664 0.1367,0.1318 0.29241,0.23806 0.41649,0.3827 0.13758,0.15374 0.23651,0.33487 0.35252,0.50382 0.0829,0.16025 0.18626,0.30065 0.30743,0.43381 0.23606,0.23225 0.5124,0.41327 0.79379,0.5848 0.25603,0.14985 0.53297,0.26325 0.77917,0.42948 0.13105,0.0964 0.26512,0.19118 0.39247,0.29276 0.11409,0.11431 0.19704,0.25115 0.26791,0.39497 0.063,0.17084 0.10121,0.35088 0.14186,0.52843 0.0271,0.12107 0.0329,0.24482 0.0585,0.36601 0,0 -0.41147,0.22078 -0.41147,0.22078 v 0 c -0.0267,-0.12102 -0.0319,-0.24447 -0.0576,-0.36586 -0.0392,-0.17421 -0.0786,-0.35007 -0.13731,-0.51843 -0.0678,-0.13747 -0.14658,-0.26927 -0.25737,-0.37699 -0.12784,-0.0992 -0.2585,-0.19564 -0.3893,-0.29059 -0.2458,-0.1639 -0.51873,-0.28107 -0.77281,-0.4312 -0.28522,-0.17424 -0.56579,-0.35809 -0.80619,-0.59251 -0.12299,-0.13461 -0.22768,-0.27674 -0.31092,-0.43938 -0.11388,-0.16834 -0.21302,-0.34716 -0.35012,-0.49903 -0.12424,-0.14248 -0.28071,-0.24717 -0.41443,-0.38014 -0.12974,-0.12914 -0.27859,-0.23749 -0.41568,-0.35853 -0.19464,-0.13206 -0.39024,-0.26275 -0.57933,-0.40281 -0.21813,-0.14534 -0.44964,-0.2683 -0.67057,-0.4091 -0.20032,-0.10665 -0.40069,-0.21337 -0.59294,-0.33425 -0.17775,-0.10508 -0.35632,-0.20885 -0.55017,-0.28246 -0.39882,-0.1624 -0.81055,-0.29298 -1.2143,-0.44244 -0.61383,-0.21257 -1.22591,-0.43042 -1.83082,-0.6674 -0.58549,-0.22806 -1.17882,-0.43576 -1.76176,-0.67063 -0.3941,-0.16477 -0.77073,-0.35892 -1.1237,-0.60075 -0.22206,-0.14676 -0.4345,-0.30389 -0.62484,-0.49089 -0.2351,-0.191 -0.49086,-0.34787 -0.77215,-0.46299 -0.45598,-0.21334 -0.92382,-0.40106 -1.38423,-0.60457 -0.48509,-0.20212 -0.96643,-0.41247 -1.4367,-0.6475 -0.3425,-0.17601 -0.68159,-0.35804 -1.00355,-0.56994 -0.24431,-0.15326 -0.48917,-0.30564 -0.73153,-0.4619 -0.27224,-0.18065 -0.53811,-0.37086 -0.80389,-0.56083 -0.25003,-0.18248 -0.49929,-0.36612 -0.74577,-0.55327 -0.19209,-0.15238 -0.37525,-0.31766 -0.5819,-0.45058 -0.27772,-0.18547 -0.58783,-0.31154 -0.90204,-0.42202 -0.68495,-0.2337 -1.36674,-0.47631 -2.06912,-0.65451 -0.5712,-0.16609 -1.14543,-0.32147 -1.71345,-0.49853 -0.47817,-0.13346 -0.9641,-0.24907 -1.41607,-0.46026 -0.38627,-0.17926 -0.75822,-0.38522 -1.10246,-0.63744 -0.32939,-0.20963 -0.66249,-0.4137 -0.97794,-0.6444 -0.39136,-0.25707 -0.7922,-0.50065 -1.17132,-0.77581 -0.27814,-0.20178 -0.54116,-0.42356 -0.81537,-0.63067 -0.29722,-0.21749 -0.59583,-0.43309 -0.91207,-0.62252 -0.28752,-0.17824 -0.5666,-0.37054 -0.86382,-0.53274 -0.30298,-0.16285 -0.62034,-0.29154 -0.94013,-0.41747 -0.3879,-0.15241 -0.77632,-0.30448 -1.15297,-0.48358 -0.36317,-0.19338 -0.72634,-0.39067 -1.04353,-0.65582 -0.2461,-0.1867 -0.4849,-0.38375 -0.71734,-0.58695 -0.24518,-0.23392 -0.46489,-0.49288 -0.67889,-0.75531 -0.14048,-0.18089 -0.28026,-0.36282 -0.42783,-0.53781 -0.15538,-0.12369 -0.33982,-0.18368 -0.53337,-0.22258 -0.39184,-0.0716 -0.78556,-0.12633 -1.17935,-0.18621 -0.61025,-0.0977 -1.22213,-0.19287 -1.8159,-0.36978 -0.54531,-0.15488 -1.08009,-0.34002 -1.6161,-0.52426 -0.51175,-0.16624 -1.02981,-0.31129 -1.54362,-0.47084 -0.38164,-0.13101 -0.76373,-0.26157 -1.13775,-0.41334 -0.26075,-0.11586 -0.53024,-0.20618 -0.79613,-0.30926 -0.32765,-0.1194 -0.64624,-0.25837 -0.96455,-0.40045 -0.26694,-0.10987 -0.52665,-0.237 -0.80177,-0.32668 -0.29079,-0.10779 -0.58106,-0.21675 -0.8696,-0.33042 -0.38827,-0.15539 -0.77568,-0.31398 -1.17716,-0.43351 -0.54349,-0.16039 -1.08803,-0.31724 -1.62713,-0.49224 -0.39706,-0.13027 -0.7937,-0.26475 -1.12438,-0.53046 -0.19738,-0.15971 -0.36783,-0.34437 -0.52394,-0.54467 -0.1372,-0.16732 -0.27998,-0.30956 -0.49099,-0.38205 -0.34992,-0.15896 -0.71162,-0.29214 -1.06323,-0.44754 -0.39752,-0.1565 -0.80305,-0.29511 -1.1791,-0.50066 -0.32392,-0.15972 -0.6503,-0.31545 -0.96513,-0.49268 -0.26268,-0.16001 -0.51011,-0.34314 -0.77184,-0.50473 -0.2191,-0.13376 -0.4312,-0.27812 -0.65824,-0.39862 -0.24821,-0.14072 -0.49826,-0.27746 -0.74847,-0.41461 -0.25146,-0.13205 -0.49526,-0.27867 -0.75471,-0.3952 -0.30452,-0.15169 -0.61403,-0.29324 -0.91525,-0.4516 -0.36124,-0.20086 -0.72097,-0.40484 -1.07469,-0.61871 -0.3353,-0.21824 -0.65077,-0.46393 -0.97629,-0.69614 -0.30049,-0.20331 -0.58589,-0.4266 -0.8663,-0.65679 -0.25648,-0.20662 -0.51343,-0.41571 -0.73779,-0.6577 -0.12836,-0.14044 -0.25339,-0.28444 -0.35132,-0.44844 -0.0823,-0.11012 -0.16495,-0.21772 -0.28611,-0.28919 -0.31203,-0.15821 -0.62968,-0.30417 -0.96348,-0.41132 -0.5023,-0.1973 -1.01296,-0.37636 -1.49703,-0.61675 -0.43815,-0.22211 -0.86652,-0.46192 -1.29829,-0.69609 -0.35508,-0.19547 -0.724,-0.36411 -1.08999,-0.53801 -0.291,-0.13513 -0.59128,-0.25774 -0.85716,-0.43959 -0.25912,-0.19224 -0.50756,-0.40009 -0.70825,-0.65461 0,0 0.40018,-0.24027 0.40018,-0.24027 z"
         inkscape:connector-curvature="0" />
      <path
         style="opacity:1;fill:#000000;fill-opacity:1;stroke:#000000;stroke-width:1.74946556;stroke-linecap:butt;stroke-linejoin:miter;stroke-miterlimit:4;stroke-dasharray:none;stroke-dashoffset:0;stroke-opacity:1"
         id="path1625"
         d="m 45.51925,138.68058 c 0.27022,0.35746 0.60354,0.64701 0.96432,0.90861 0.58652,0.4401 1.2388,0.77448 1.89448,1.09675 0.86003,0.39871 1.71873,0.80242 2.60201,1.14744 0.61102,0.23076 1.22616,0.45411 1.82657,0.71166 0.21776,0.0893 0.43606,0.17573 0.63166,0.30817 0.20671,0.16105 0.41786,0.31623 0.63334,0.46534 0.38595,0.25778 0.76443,0.5258 1.15703,0.77376 0.42541,0.27097 0.85126,0.53918 1.25282,0.84465 0.34007,0.25217 0.65945,0.53196 0.97858,0.81002 0.2262,0.2234 0.48819,0.40615 0.71865,0.62423 0.17427,0.19343 0.35587,0.37647 0.55891,0.53971 0.3218,0.23332 0.644,0.46497 0.98197,0.6744 0.41642,0.27613 0.8502,0.52431 1.28324,0.7731 0.49825,0.29195 1.00836,0.56217 1.51847,0.83254 0.51511,0.27604 1.0266,0.55837 1.54787,0.82277 0.50498,0.26369 1.03586,0.47041 1.56989,0.66623 0.56208,0.20102 1.14204,0.34876 1.71834,0.50307 0.71319,0.22533 1.4299,0.43948 2.14012,0.67411 0.74479,0.24054 1.49902,0.44999 2.2483,0.6756 0.39144,0.11736 0.77181,0.26306 1.14665,0.42485 0.2946,0.13971 0.57739,0.30234 0.85389,0.4747 0.3195,0.21474 0.63874,0.42968 0.96257,0.63792 0.3154,0.1913 0.62402,0.39343 0.9393,0.58488 0.32437,0.22132 0.64674,0.44385 0.9845,0.64456 0.32749,0.19585 0.65488,0.39198 0.98477,0.58378 0.34915,0.2011 0.69915,0.4003 1.0525,0.59394 0.46971,0.24239 0.94191,0.47901 1.42399,0.69589 0.49278,0.2557 1.00166,0.4756 1.51889,0.67629 0.52758,0.1988 1.06528,0.36886 1.58652,0.58421 0.33615,0.13992 0.66479,0.28943 0.96251,0.50031 0.22106,0.18965 0.47476,0.33205 0.72938,0.47054 0.49342,0.22616 1.02783,0.3605 1.54804,0.514 0.68823,0.18206 1.36774,0.3916 2.04662,0.6053 0.53197,0.1693 1.05372,0.36807 1.57865,0.55753 0.6098,0.20305 1.21434,0.42112 1.82504,0.6215 0.59425,0.19269 1.19093,0.37797 1.78381,0.57474 0.30381,0.0849 0.58986,0.2019 0.8596,0.36329 0.21041,0.15497 0.43017,0.29503 0.651,0.43465 0.31595,0.18516 0.65695,0.32148 0.9843,0.48455 0.35821,0.17727 0.71452,0.35858 1.06911,0.54306 0.37313,0.2032 0.74686,0.40392 1.12792,0.59199 0.27399,0.1481 0.56001,0.2736 0.82749,0.43347 0.22198,0.13239 0.45711,0.23764 0.69987,0.32496 0.332,0.12203 0.6686,0.2313 1.00994,0.32404 0.41094,0.11745 0.82782,0.21026 1.23822,0.32975 0.50682,0.15403 1.00279,0.34055 1.50325,0.51361 0.38769,0.14919 0.77108,0.30881 1.14377,0.49243 0.25701,0.13604 0.48048,0.32442 0.71524,0.49412 0.33667,0.2533 0.71004,0.44714 1.08515,0.63567 0.36799,0.17563 0.72536,0.3721 1.07234,0.58604 0.2808,0.16647 0.53765,0.36685 0.81418,0.53968 0.30747,0.19016 0.63125,0.35059 0.95814,0.50397 0.51193,0.23391 1.02919,0.45573 1.54346,0.68443 0.55911,0.2499 1.1283,0.4761 1.69288,0.7131 0.41031,0.16823 0.80734,0.36607 1.19359,0.58345 0.31059,0.14317 0.60375,0.31748 0.89937,0.4881 0.30759,0.17739 0.59809,0.38187 0.89392,0.57768 0.29885,0.19747 0.59343,0.40104 0.89058,0.60098 0.17294,0.10699 0.34822,0.21521 0.49873,0.35289 0.10805,0.114 0.23487,0.20834 0.32576,0.33741 0.10348,0.14883 0.1569,0.3243 0.22944,0.48892 0.10585,0.21223 0.22949,0.41426 0.35351,0.61613 0.15089,0.27277 0.33283,0.52484 0.53202,0.76386 0.14443,0.16694 0.27303,0.34606 0.40889,0.51956 0.0508,0.0653 0.0876,0.13889 0.13308,0.2078 0,0 -0.40356,0.23602 -0.40356,0.23602 v 0 c -0.0443,-0.0682 -0.0808,-0.14045 -0.13036,-0.20507 -0.13387,-0.17426 -0.26293,-0.35204 -0.40503,-0.52006 -0.19969,-0.24137 -0.38155,-0.49593 -0.53549,-0.76929 -0.12638,-0.20292 -0.25194,-0.40625 -0.35914,-0.62021 -0.0721,-0.1614 -0.12405,-0.33419 -0.22624,-0.48005 -0.0895,-0.12541 -0.21479,-0.21744 -0.32028,-0.32875 -0.1501,-0.13425 -0.32135,-0.2427 -0.49127,-0.34983 -0.29582,-0.2009 -0.58856,-0.40614 -0.88761,-0.60229 -0.29581,-0.19474 -0.58699,-0.39716 -0.89392,-0.57437 -0.29548,-0.17013 -0.5894,-0.34214 -0.89794,-0.48846 -0.38413,-0.21631 -0.77888,-0.41342 -1.18651,-0.58187 -0.56351,-0.23838 -1.13136,-0.46656 -1.69021,-0.71587 -0.51646,-0.22773 -1.03603,-0.44832 -1.55028,-0.68105 -0.32916,-0.15397 -0.65542,-0.31477 -0.96468,-0.50645 -0.27548,-0.17361 -0.53124,-0.37514 -0.81219,-0.54053 -0.34553,-0.21309 -0.70132,-0.409 -1.06754,-0.58443 -0.37751,-0.1903 -0.75251,-0.3867 -1.09332,-0.63912 -0.23289,-0.16806 -0.45528,-0.35383 -0.71049,-0.48799 -0.37015,-0.18304 -0.74996,-0.34479 -1.13635,-0.49053 -0.49916,-0.17396 -0.99378,-0.36193 -1.50082,-0.51227 -0.41193,-0.1171 -0.8306,-0.20719 -1.24197,-0.3265 -0.34222,-0.0947 -0.68006,-0.20414 -1.01368,-0.32582 -0.24535,-0.0883 -0.48235,-0.19677 -0.7061,-0.33144 -0.2667,-0.15738 -0.54903,-0.28617 -0.82144,-0.43319 -0.38093,-0.18883 -0.75376,-0.39202 -1.12848,-0.59273 -0.3546,-0.18429 -0.71099,-0.36531 -1.06952,-0.54177 -0.32914,-0.16307 -0.67166,-0.30004 -0.98826,-0.48754 -0.22138,-0.13898 -0.44147,-0.27885 -0.65333,-0.43201 -0.26487,-0.16007 -0.5492,-0.27145 -0.84613,-0.36012 -0.59074,-0.1991 -1.18551,-0.38609 -1.77867,-0.57791 -0.61195,-0.20068 -1.21844,-0.41726 -1.82973,-0.61992 -0.52398,-0.18889 -1.04473,-0.38717 -1.57513,-0.55774 -0.67778,-0.21531 -1.35656,-0.42518 -2.04471,-0.60548 -0.52528,-0.15354 -1.06583,-0.2848 -1.56283,-0.51571 -0.25667,-0.13906 -0.51132,-0.28295 -0.73383,-0.47411 -0.29479,-0.20721 -0.61993,-0.35569 -0.95129,-0.49545 -0.52015,-0.21599 -1.05712,-0.38582 -1.58379,-0.58483 -0.51788,-0.20155 -1.02701,-0.42289 -1.52128,-0.6776 -0.48299,-0.21823 -0.95623,-0.45609 -1.42804,-0.6974 -0.35447,-0.19321 -0.7061,-0.39108 -1.05535,-0.59355 -0.32982,-0.19195 -0.65715,-0.38823 -0.98433,-0.58462 -0.33766,-0.20141 -0.65956,-0.42518 -0.98574,-0.64426 -0.3154,-0.19179 -0.62422,-0.39415 -0.93952,-0.58616 -0.32348,-0.20871 -0.64197,-0.42479 -0.96342,-0.63649 -0.27531,-0.17064 -0.55703,-0.33126 -0.85062,-0.46863 -0.37183,-0.16039 -0.74825,-0.30752 -1.13595,-0.42591 -0.74664,-0.23014 -1.49871,-0.44264 -2.24307,-0.68036 -0.71129,-0.23321 -1.429,-0.44602 -2.14363,-0.6686 -0.57805,-0.15358 -1.15941,-0.30187 -1.72231,-0.50537 -0.53525,-0.19681 -1.06715,-0.405 -1.57275,-0.67075 -0.52112,-0.26489 -1.0326,-0.54733 -1.54753,-0.82391 -0.51125,-0.26991 -1.022,-0.54066 -1.52119,-0.83257 -0.43451,-0.24799 -0.8685,-0.49741 -1.28627,-0.77305 -0.33975,-0.21095 -0.6655,-0.44203 -0.98956,-0.67627 -0.20377,-0.16431 -0.38676,-0.34788 -0.56194,-0.54218 -0.22961,-0.21734 -0.48837,-0.40251 -0.71389,-0.6249 -0.31871,-0.27675 -0.6349,-0.55833 -0.97502,-0.80862 -0.40111,-0.30309 -0.8235,-0.57392 -1.248,-0.8431 -0.39385,-0.24878 -0.77606,-0.51457 -1.16479,-0.77105 -0.21586,-0.14898 -0.42733,-0.30403 -0.63638,-0.46242 -0.19427,-0.12684 -0.40849,-0.2138 -0.6209,-0.30539 -0.59492,-0.26145 -1.20506,-0.48787 -1.81199,-0.71947 -0.88364,-0.34817 -1.74342,-0.75344 -2.60671,-1.14873 -0.6588,-0.32371 -1.31497,-0.65853 -1.90572,-1.09859 -0.3649,-0.26387 -0.69976,-0.55788 -0.98111,-0.91173 0,0 0.40018,-0.24027 0.40018,-0.24027 z"
         inkscape:connector-curvature="0" />
      <path
         style="fill:none;stroke:none;stroke-width:0.26458332px;stroke-linecap:butt;stroke-linejoin:miter;stroke-opacity:1"
         d="m 125.34941,157.91209 c 4.05359,-4.98903 10.15129,-8.80949 12.16076,-14.96709 1.46908,0.49271 3.11906,0.44272 4.94449,-0.13364 4.91813,-3.86147 5.34729,-8.72048 7.34991,-13.22984 4.69137,1.62268 4.26556,-0.25587 14.96709,5.47902 3.02129,-1.5645 5.57073,-3.60252 7.08264,-6.68173 5.42802,0.29734 7.4557,3.25005 16.57071,0.66816 2.07326,-2.91072 3.43536,-3.77455 4.6104,-4.74403"
         id="path1629"
         inkscape:connector-curvature="0"
         sodipodi:nodetypes="cccccccc" />
      <path
         style="fill:#acacac;fill-opacity:1;stroke:none;stroke-width:0.16500001;stroke-linecap:butt;stroke-linejoin:miter;stroke-miterlimit:4;stroke-dasharray:none;stroke-opacity:1"
         d="m 176.73302,155.07032 c 0,0 -6.34498,-3.60246 -13.57841,-2.95988 -5.28725,0.46969 -6.4182,1.29329 -9.87276,1.61033 -1.6438,0.15087 -4.94727,-1.28771 -2.67547,-4.22767 1.73725,-2.03462 1.68714,-3.81251 1.57021,-5.26187 -0.80181,3.93017 -2.3052,3.7616 -3.842,5.86323 -1.39553,1.90843 -2.45826,5.27951 0.80319,6.71613 5.1812,2.28222 12.55078,-1.02184 16.02529,0.18087 3.4745,1.20272 4.07319,2.13886 4.07319,2.13886 z"
         id="path1631"
         inkscape:connector-curvature="0"
         sodipodi:nodetypes="cssccssccc" />
      <g
         transform="matrix(-1,0,0,1,245.92168,0)"
         id="g1647">
        <g
           id="g1636">
          <path
             style="fill:#5c480d;fill-opacity:1;stroke:none;stroke-width:0.16500001;stroke-linecap:butt;stroke-linejoin:miter;stroke-miterlimit:4;stroke-dasharray:none;stroke-opacity:1"
             d="m 68.761127,122.0359 c -2.663074,6.09978 -5.041495,9.80281 -9.727661,18.16958 -1.53503,2.74067 -5.543114,2.07862 -9.153981,1.1359 12.403412,3.55841 13.311373,6.53844 16.164437,9.61633 -1.085407,-1.53334 -2.523946,-5.41351 -1.971115,-7.58378 1.659738,-6.5157 4.266409,-10.5938 9.013222,-17.3369 1.386015,-1.9689 6.829492,-2.19411 8.35438,-2.48935 -4.488327,-0.81481 -11.312845,-4.56755 -13.921134,-8.26508 2.099679,2.77475 1.969468,5.08669 1.241852,6.7533 z"
             id="path1541"
             inkscape:connector-curvature="0"
             sodipodi:nodetypes="ssccssccs" />
        </g>
      </g>
      <path
         style="fill:#177c12;fill-opacity:1;stroke:none;stroke-width:0.16500001;stroke-linecap:butt;stroke-linejoin:miter;stroke-miterlimit:4;stroke-dasharray:none;stroke-opacity:1"
         d="m 152.96343,122.29044 c 1.88988,4.15774 -0.63903,5.19766 -0.63903,5.19766 0.0154,1.55766 1.01136,2.9591 4.72471,2.83482 1.605,-1.5499 0.0426,-3.85721 5.29166,-4.53571 1.6379,0.31498 2.0061,-1.81176 4.91369,0.94494 1.01249,0.13891 4.26344,-0.37255 4.87248,-4.23864 3.07402,-0.0194 5.51255,1.86756 9.30163,-0.29707 1.4791,-1.052 3.20956,-0.69637 4.28842,-3.98972 l 1.98079,-1.00009 -7.07722,-9.22918 c -10.12311,6.22571 -17.69812,10.42183 -27.65713,14.31299 z"
         id="path1627"
         inkscape:connector-curvature="0"
         sodipodi:nodetypes="ccccccccccc" />
    </g>
  </g>
</svg>
